comportamiento.vcd
$date
	Wed Jun 08 11:45:01 2022
$end
$version
	QuestaSim Version 2020.2
$end
$timescale
	1ns
$end
$scope module top $end
$scope module dut $end
$scope module divisor_duv $end
$var wire 1 ! CLK $end
$var wire 1 " RSTa $end
$var wire 1 # Start $end
$var reg 32 a Num [31:0] $end
$var reg 32 b Den [31:0] $end
$var reg 32 $ Coc [31:0] $end
$var reg 32 % Res [31:0] $end
$var wire 1 & Done $end
$var integer 32 ' state1 $end
$upscope $end
$upscope $end
$upscope $end
$enddefinitions $end
#0
0!
0"
x#
bx $
bx %
bx a
bx b
0&
bx0 '
0!
0"
bx0 '
0&
#10
1!
#20
0!
#30
1!
#40
0!
#50
1!
1"
#60
0!
#70
h8ffcfdc8 a
h82fc0db45 b
1!
#72
1#
#80
0!
#90
1!
bx1 '
#100
0!
#110
1!
bx '
#112
0#
#120
0!
#130
1!
bx1 '
#140
0!
#150
1!
bx '
#160
0!
#170
1!
bx1 '
#180
0!
#190
1!
bx '
#200
0!
#210
1!
bx1 '
#220
0!
#230
1!
bx '
#240
0!
#250
1!
bx1 '
#260
0!
#270
1!
bx '
#280
0!
#290
1!
bx1 '
#300
0!
#310
1!
bx '
#320
0!
#330
1!
bx1 '
#340
0!
#350
1!
bx '
#360
0!
#370
1!
bx1 '
#380
0!
#390
1!
bx '
#400
0!
#410
1!
bx1 '
#420
0!
#430
1!
bx '
#440
0!
#450
1!
bx1 '
#460
0!
#470
1!
bx '
#480
0!
#490
1!
bx1 '
#500
0!
#510
1!
bx '
#520
0!
#530
1!
bx1 '
#540
0!
#550
1!
bx '
#560
0!
#570
1!
bx1 '
#580
0!
#590
1!
bx '
#600
0!
#610
1!
bx1 '
#620
0!
#630
1!
bx '
#640
0!
#650
1!
bx1 '
#660
0!
#670
1!
bx '
#680
0!
#690
1!
bx1 '
#700
0!
#710
1!
bx '
#720
0!
#730
1!
bx1 '
#740
0!
#750
1!
bx '
#760
0!
#770
1!
bx1 '
#780
0!
#790
1!
bx '
#800
0!
#810
1!
bx1 '
#820
0!
#830
1!
bx '
#840
0!
#850
1!
bx1 '
#860
0!
#870
1!
bx '
#880
0!
#890
1!
bx1 '
#900
0!
#910
1!
bx '
#920
0!
#930
1!
bx1 '
#940
0!
#950
1!
bx '
#960
0!
#970
1!
bx1 '
#980
0!
#990
1!
bx '
#1000
0!
#1010
1!
bx1 '
#1020
0!
#1030
1!
bx '
#1040
0!
#1050
1!
bx1 '
#1060
0!
#1070
1!
bx '
#1080
0!
#1090
1!
bx1 '
#1100
0!
#1110
1!
bx '
#1120
0!
#1130
1!
bx1 '
#1140
0!
#1150
1!
bx '
#1160
0!
#1170
1!
bx1 '
#1180
0!
#1190
1!
bx '
#1200
0!
#1210
1!
bx1 '
#1220
0!
#1230
1!
bx '
#1240
0!
#1250
1!
bx1 '
#1260
0!
#1270
1!
bx '
#1280
0!
#1290
1!
bx1 '
#1300
0!
#1310
1!
bx '
#1320
0!
#1330
1!
bx1 '
#1340
0!
#1350
1!
bx '
#1360
0!
#1370
1!
bx '
#1380
0!
#1390
1!
b11111111111111111111111111111110 $
b11101111011111101011010001010010 %
bx0 '
1&
#1400
0!
#1410
1!
0&
#1420
0!
#1430
1!
#1440
0!
#1450
1!
#1452
hf150cbf1 a
h54be07ff b
1#
#1460
0!
#1470
1!
bx1 '
#1480
0!
#1490
1!
bx '
#1492
0#
#1500
0!
#1510
1!
bx1 '
#1520
0!
#1530
1!
bx '
#1540
0!
#1550
1!
bx1 '
#1560
0!
#1570
1!
bx '
#1580
0!
#1590
1!
bx1 '
#1600
0!
#1610
1!
bx '
#1620
0!
#1630
1!
bx1 '
#1640
0!
#1650
1!
bx '
#1660
0!
#1670
1!
bx1 '
#1680
0!
#1690
1!
bx '
#1700
0!
#1710
1!
bx1 '
#1720
0!
#1730
1!
bx '
#1740
0!
#1750
1!
bx1 '
#1760
0!
#1770
1!
bx '
#1780
0!
#1790
1!
bx1 '
#1800
0!
#1810
1!
bx '
#1820
0!
#1830
1!
bx1 '
#1840
0!
#1850
1!
bx '
#1860
0!
#1870
1!
bx1 '
#1880
0!
#1890
1!
bx '
#1900
0!
#1910
1!
bx1 '
#1920
0!
#1930
1!
bx '
#1940
0!
#1950
1!
bx1 '
#1960
0!
#1970
1!
bx '
#1980
0!
#1990
1!
bx1 '
#2000
0!
#2010
1!
bx '
#2020
0!
#2030
1!
bx1 '
#2040
0!
#2050
1!
bx '
#2060
0!
#2070
1!
bx1 '
#2080
0!
#2090
1!
bx '
#2100
0!
#2110
1!
bx1 '
#2120
0!
#2130
1!
bx '
#2140
0!
#2150
1!
bx1 '
#2160
0!
#2170
1!
bx '
#2180
0!
#2190
1!
bx1 '
#2200
0!
#2210
1!
bx '
#2220
0!
#2230
1!
bx1 '
#2240
0!
#2250
1!
bx '
#2260
0!
#2270
1!
bx1 '
#2280
0!
#2290
1!
bx '
#2300
0!
#2310
1!
bx1 '
#2320
0!
#2330
1!
bx '
#2340
0!
#2350
1!
bx1 '
#2360
0!
#2370
1!
bx '
#2380
0!
#2390
1!
bx1 '
#2400
0!
#2410
1!
bx '
#2420
0!
#2430
1!
bx1 '
#2440
0!
#2450
1!
bx '
#2460
0!
#2470
1!
bx1 '
#2480
0!
#2490
1!
bx '
#2500
0!
#2510
1!
bx1 '
#2520
0!
#2530
1!
bx '
#2540
0!
#2550
1!
bx1 '
#2560
0!
#2570
1!
bx '
#2580
0!
#2590
1!
bx1 '
#2600
0!
#2610
1!
bx '
#2620
0!
#2630
1!
bx1 '
#2640
0!
#2650
1!
bx '
#2660
0!
#2670
1!
bx1 '
#2680
0!
#2690
1!
bx '
#2700
0!
#2710
1!
bx1 '
#2720
0!
#2730
1!
bx '
#2740
0!
#2750
1!
bx '
#2760
0!
#2770
1!
b0 $
b11110001010100001100101111110001 %
bx0 '
1&
#2780
0!
#2790
1!
0&
#2800
0!
#2810
1!
#2820
0!
#2830
1!
#2832
1#
#2840
0!
#2850
1!
bx1 '
#2860
0!
#2870
1!
bx '
#2872
0#
#2880
0!
#2890
1!
bx1 '
#2900
0!
#2910
1!
bx '
#2920
0!
#2930
1!
bx1 '
#2940
0!
#2950
1!
bx '
#2960
0!
#2970
1!
bx1 '
#2980
0!
#2990
1!
bx '
#3000
0!
#3010
1!
bx1 '
#3020
0!
#3030
1!
bx '
#3040
0!
#3050
1!
bx1 '
#3060
0!
#3070
1!
bx '
#3080
0!
#3090
1!
bx1 '
#3100
0!
#3110
1!
bx '
#3120
0!
#3130
1!
bx1 '
#3140
0!
#3150
1!
bx '
#3160
0!
#3170
1!
bx1 '
#3180
0!
#3190
1!
bx '
