comportamiento2.vcd
$date
	Wed Jun 08 11:38:58 2022
$end
$version
	QuestaSim Version 2020.2
$end
$timescale
	1ns
$end
$scope module top $end
$scope module dut $end
$scope module divisor_duv $end
$var wire 1 ! CLK $end
$var wire 1 " RSTa $end
$var wire 1 # Start $end
$var wire 1 $ Num [31] $end
$var wire 1 % Num [30] $end
$var wire 1 & Num [29] $end
$var wire 1 ' Num [28] $end
$var wire 1 ( Num [27] $end
$var wire 1 ) Num [26] $end
$var wire 1 * Num [25] $end
$var wire 1 + Num [24] $end
$var wire 1 , Num [23] $end
$var wire 1 - Num [22] $end
$var wire 1 . Num [21] $end
$var wire 1 / Num [20] $end
$var wire 1 0 Num [19] $end
$var wire 1 1 Num [18] $end
$var wire 1 2 Num [17] $end
$var wire 1 3 Num [16] $end
$var wire 1 4 Num [15] $end
$var wire 1 5 Num [14] $end
$var wire 1 6 Num [13] $end
$var wire 1 7 Num [12] $end
$var wire 1 8 Num [11] $end
$var wire 1 9 Num [10] $end
$var wire 1 : Num [9] $end
$var wire 1 ; Num [8] $end
$var wire 1 < Num [7] $end
$var wire 1 = Num [6] $end
$var wire 1 > Num [5] $end
$var wire 1 ? Num [4] $end
$var wire 1 @ Num [3] $end
$var wire 1 A Num [2] $end
$var wire 1 B Num [1] $end
$var wire 1 C Num [0] $end
$var wire 1 D Den [31] $end
$var wire 1 E Den [30] $end
$var wire 1 F Den [29] $end
$var wire 1 G Den [28] $end
$var wire 1 H Den [27] $end
$var wire 1 I Den [26] $end
$var wire 1 J Den [25] $end
$var wire 1 K Den [24] $end
$var wire 1 L Den [23] $end
$var wire 1 M Den [22] $end
$var wire 1 N Den [21] $end
$var wire 1 O Den [20] $end
$var wire 1 P Den [19] $end
$var wire 1 Q Den [18] $end
$var wire 1 R Den [17] $end
$var wire 1 S Den [16] $end
$var wire 1 T Den [15] $end
$var wire 1 U Den [14] $end
$var wire 1 V Den [13] $end
$var wire 1 W Den [12] $end
$var wire 1 X Den [11] $end
$var wire 1 Y Den [10] $end
$var wire 1 Z Den [9] $end
$var wire 1 [ Den [8] $end
$var wire 1 \ Den [7] $end
$var wire 1 ] Den [6] $end
$var wire 1 ^ Den [5] $end
$var wire 1 _ Den [4] $end
$var wire 1 ` Den [3] $end
$var wire 1 a Den [2] $end
$var wire 1 b Den [1] $end
$var wire 1 c Den [0] $end
$var reg 32 d Coc [31:0] $end
$var reg 32 e Res [31:0] $end
$var wire 1 f Done $end
$var integer 32 g state1 $end
$upscope $end
$upscope $end
$upscope $end
$enddefinitions $end
#0
0!
0"
x#
x$
x%
x&
x'
x(
x)
x*
x+
x,
x-
x.
x/
x0
x1
x2
x3
x4
x5
x6
x7
x8
x9
x:
x;
x<
x=
x>
x?
x@
xA
xB
xC
xD
xE
xF
xG
xH
xI
xJ
xK
xL
xM
xN
xO
xP
xQ
xR
xS
xT
xU
xV
xW
xX
xY
xZ
x[
x\
x]
x^
x_
x`
xa
xb
xc
bx d
bx e
0f
bx0 g
0!
0"
bx0 g
0f
#10
1!
#20
0!
#30
1!
#40
0!
#50
1!
1"
#60
0!
#70
1!
#72
1#
0D
0E
1F
0G
1H
1I
1J
1K
1L
1M
0N
0O
0P
0Q
0R
0S
1T
1U
0V
1W
1X
0Y
1Z
1[
0\
1]
0^
0_
0`
1a
0b
1c
1$
0%
0&
0'
1(
1)
1*
1+
1,
1-
1.
1/
10
11
02
03
14
15
16
17
18
19
0:
1;
1<
1=
0>
0?
1@
0A
0B
0C
#80
0!
#90
1!
bx1 g
#100
0!
#110
1!
bx g
#112
0#
#120
0!
#130
1!
bx1 g
#140
0!
#150
1!
bx g
#160
0!
#170
1!
bx1 g
#180
0!
#190
1!
bx g
#200
0!
#210
1!
bx1 g
#220
0!
#230
1!
bx g
#240
0!
#250
1!
bx1 g
#260
0!
#270
1!
bx g
#280
0!
#290
1!
bx1 g
#300
0!
#310
1!
bx g
#320
0!
#330
1!
bx1 g
#340
0!
#350
1!
bx g
#360
0!
#370
1!
bx1 g
#380
0!
#390
1!
bx g
#400
0!
#410
1!
bx1 g
#420
0!
#430
1!
bx g
#440
0!
#450
1!
bx1 g
#460
0!
#470
1!
bx g
#480
0!
#490
1!
bx1 g
#500
0!
#510
1!
bx g
#520
0!
#530
1!
bx1 g
#540
0!
#550
1!
bx g
#560
0!
#570
1!
bx1 g
#580
0!
#590
1!
bx g
#600
0!
#610
1!
bx1 g
#620
0!
#630
1!
bx g
#640
0!
#650
1!
bx1 g
#660
0!
#670
1!
bx g
#680
0!
#690
1!
bx1 g
#700
0!
#710
1!
bx g
#720
0!
#730
1!
bx1 g
#740
0!
#750
1!
bx g
#760
0!
#770
1!
bx1 g
#780
0!
#790
1!
bx g
#800
0!
#810
1!
bx1 g
#820
0!
#830
1!
bx g
#840
0!
#850
1!
bx1 g
#860
0!
#870
1!
bx g
#880
0!
#890
1!
bx1 g
#900
0!
#910
1!
bx g
#920
0!
#930
1!
bx1 g
#940
0!
#950
1!
bx g
#960
0!
#970
1!
bx1 g
#980
0!
#990
1!
bx g
#1000
0!
#1010
1!
bx1 g
#1020
0!
#1030
1!
bx g
#1040
0!
#1050
1!
bx1 g
#1060
0!
#1070
1!
bx g
#1080
0!
#1090
1!
bx1 g
#1100
0!
#1110
1!
bx g
#1120
0!
#1130
1!
bx1 g
#1140
0!
#1150
1!
bx g
#1160
0!
#1170
1!
bx1 g
#1180
0!
#1190
1!
bx g
#1200
0!
#1210
1!
bx1 g
#1220
0!
#1230
1!
bx g
#1240
0!
#1250
1!
bx1 g
#1260
0!
#1270
1!
bx g
#1280
0!
#1290
1!
bx1 g
#1300
0!
#1310
1!
bx g
#1320
0!
#1330
1!
bx1 g
#1340
0!
#1350
1!
bx g
#1360
0!
#1370
1!
bx g
#1380
0!
#1390
1!
b11111111111111111111111111111110 d
b11101111011111101011010001010010 e
bx0 g
1f
#1400
0!
#1410
1!
0f
#1420
0!
#1430
1!
#1440
0!
#1450
1!
#1452
1#
1E
0F
1G
0H
0J
0K
0M
1N
1O
1P
1Q
1R
0T
0U
0W
0X
1Y
1\
1^
1_
1`
1b
1%
1&
1'
0(
0)
0*
0,
0.
00
01
06
07
09
1:
1>
1?
0@
1C
#1460
0!
#1470
1!
bx1 g
#1480
0!
#1490
1!
bx g
#1492
0#
#1500
0!
#1510
1!
bx1 g
#1520
0!
#1530
1!
bx g
#1540
0!
#1550
1!
bx1 g
#1560
0!
#1570
1!
bx g
#1580
0!
#1590
1!
bx1 g
#1600
0!
#1610
1!
bx g
#1620
0!
#1630
1!
bx1 g
#1640
0!
#1650
1!
bx g
#1660
0!
#1670
1!
bx1 g
#1680
0!
#1690
1!
bx g
#1700
0!
#1710
1!
bx1 g
#1720
0!
#1730
1!
bx g
#1740
0!
#1750
1!
bx1 g
#1760
0!
#1770
1!
bx g
#1780
0!
#1790
1!
bx1 g
#1800
0!
#1810
1!
bx g
#1820
0!
#1830
1!
bx1 g
#1840
0!
#1850
1!
bx g
#1860
0!
#1870
1!
bx1 g
#1880
0!
#1890
1!
bx g
#1900
0!
#1910
1!
bx1 g
#1920
0!
#1930
1!
bx g
#1940
0!
#1950
1!
bx1 g
#1960
0!
#1970
1!
bx g
#1980
0!
#1990
1!
bx1 g
#2000
0!
#2010
1!
bx g
#2020
0!
#2030
1!
bx1 g
#2040
0!
#2050
1!
bx g
#2060
0!
#2070
1!
bx1 g
#2080
0!
#2090
1!
bx g
#2100
0!
#2110
1!
bx1 g
#2120
0!
#2130
1!
bx g
#2140
0!
#2150
1!
bx1 g
#2160
0!
#2170
1!
bx g
#2180
0!
#2190
1!
bx1 g
#2200
0!
#2210
1!
bx g
#2220
0!
#2230
1!
bx1 g
#2240
0!
#2250
1!
bx g
#2260
0!
#2270
1!
bx1 g
#2280
0!
#2290
1!
bx g
#2300
0!
#2310
1!
bx1 g
#2320
0!
#2330
1!
bx g
#2340
0!
#2350
1!
bx1 g
#2360
0!
#2370
1!
bx g
#2380
0!
#2390
1!
bx1 g
#2400
0!
#2410
1!
bx g
#2420
0!
#2430
1!
bx1 g
#2440
0!
#2450
1!
bx g
#2460
0!
#2470
1!
bx1 g
#2480
0!
#2490
1!
bx g
#2500
0!
#2510
1!
bx1 g
#2520
0!
#2530
1!
bx g
#2540
0!
#2550
1!
bx1 g
#2560
0!
#2570
1!
bx g
#2580
0!
#2590
1!
bx1 g
#2600
0!
#2610
1!
bx g
#2620
0!
#2630
1!
bx1 g
#2640
0!
#2650
1!
bx g
#2660
0!
#2670
1!
bx1 g
#2680
0!
#2690
1!
bx g
#2700
0!
#2710
1!
bx1 g
#2720
0!
#2730
1!
bx g
#2740
0!
#2750
1!
bx g
#2760
0!
#2770
1!
b0 d
b11110001010100001100101111110001 e
bx0 g
1f
#2780
0!
#2790
1!
0f
#2800
0!
#2810
1!
#2820
0!
#2830
1!
#2832
1#
0E
1F
1H
0I
1J
1K
0O
0P
1X
0[
0\
0]
0_
0%
0&
1*
1,
0-
10
11
13
04
05
08
0=
0>
0C
#2840
0!
#2850
1!
bx1 g
#2860
0!
#2870
1!
bx g
#2872
0#
#2880
0!
#2890
1!
bx1 g
