FIFO_TB.vcd
$date
	Wed Apr 23 11:54:15 2025
$end
$version
	QuestaSim Version 2024.3
$end
$timescale
	1ps
$end

$scope module FIFO_tb_v2 $end

$scope module DUV $end
$var wire 1 ! CLOCK $end
$var wire 1 " RESET_N $end
$var wire 1 # CLEAR_N $end
$var wire 1 $ DATA_IN [7] $end
$var wire 1 % DATA_IN [6] $end
$var wire 1 & DATA_IN [5] $end
$var wire 1 ' DATA_IN [4] $end
$var wire 1 ( DATA_IN [3] $end
$var wire 1 ) DATA_IN [2] $end
$var wire 1 * DATA_IN [1] $end
$var wire 1 + DATA_IN [0] $end
$var wire 1 , READ $end
$var wire 1 - WRITE $end
$var reg 8 . DATA_OUT [7:0] $end
$var reg 5 / USE_DW [4:0] $end
$var reg 1 0 F_EMPTY_N $end
$var reg 1 1 F_FULL_N $end

$scope begin sobrellenado $end
$upscope $end

$scope begin sobrevaciado $end
$upscope $end
$upscope $end
$upscope $end
$enddefinitions $end
#0
$dumpvars
bx .
b0 /
00
11
0-
0,
0+
0*
0)
0(
0'
0&
0%
0$
1#
x"
0!
$end
#10000
0"
1!
#20000
0!
#30000
1!
#40000
0!
#50000
1!
#60000
0!
#70000
1!
#80000
0!
#90000
1!
#100000
0!
#110000
1!
#117000
1"
#120000
0!
1)
1&
1-
#130000
1!
b1 /
10
#140000
0!
0-
#150000
1!
#160000
0!
1+
0)
0&
1$
1-
#170000
1!
b10 /
#180000
0!
0-
#190000
1!
#200000
0!
1,
#210000
1!
b100100 .
b1 /
#220000
0!
0,
#230000
0"
1!
b0 /
00
#240000
0!
#250000
1!
#260000
0!
#270000
1!
#280000
0!
#290000
1!
#300000
0!
#310000
1!
#320000
0!
#330000
1!
#337000
1"
#340000
0!
1(
0$
1-
#350000
1!
b1 /
10
#360000
0!
0-
#370000
1!
#380000
0!
1*
0(
1&
1%
1-
#390000
1!
b10 /
#400000
0!
0-
#410000
1!
#420000
0!
0*
1)
1(
0&
0%
1-
#430000
1!
b11 /
#440000
0!
0-
#450000
1!
#460000
0!
1$
1-
#470000
1!
b100 /
#480000
0!
0-
#490000
1!
#500000
0!
0(
1&
1%
0$
1-
#510000
1!
b101 /
#520000
0!
0-
#530000
1!
#540000
0!
0+
1*
0)
1'
0&
0%
1-
#550000
1!
b110 /
#560000
0!
0-
#570000
1!
#580000
0!
1+
0*
0'
1-
#590000
1!
b111 /
#600000
0!
0-
#610000
1!
#620000
0!
1)
1(
1-
#630000
1!
b1000 /
#640000
0!
0-
#650000
1!
#660000
0!
0+
1*
0(
1'
1&
1%
1-
#670000
1!
b1001 /
#680000
0!
0-
#690000
1!
#700000
0!
1+
0*
1(
0%
1-
#710000
1!
b1010 /
#720000
0!
0-
#730000
1!
#740000
0!
0'
1%
1$
1-
#750000
1!
b1011 /
#760000
0!
0-
#770000
1!
#780000
0!
0+
0&
0%
1-
#790000
1!
b1100 /
#800000
0!
0-
#810000
1!
#820000
0!
1+
0)
1'
1&
1%
1-
#830000
1!
b1101 /
#840000
0!
0-
#850000
1!
#860000
0!
0+
1*
1)
0(
0'
0&
1-
#870000
1!
b1110 /
#880000
0!
0-
#890000
1!
#900000
0!
1+
0*
1-
#910000
1!
b1111 /
#920000
0!
0-
#930000
1!
#940000
0!
0+
1*
0)
1(
1&
0%
1-
#950000
1!
b10000 /
#960000
0!
0-
#970000
1!
#980000
0!
1+
0*
1)
0(
1%
1-
#990000
1!
b10001 /
#1000000
0!
0-
#1010000
1!
#1020000
0!
1*
1'
0$
1-
#1030000
1!
b10010 /
#1040000
0!
0-
#1050000
1!
#1060000
0!
0+
0)
0&
0%
1-
#1070000
1!
b10011 /
#1080000
0!
0-
#1090000
1!
#1100000
0!
1+
1)
1(
0'
1$
1-
#1110000
1!
b10100 /
#1120000
0!
0-
#1130000
1!
#1140000
0!
0+
0)
0(
1'
1&
1%
1-
#1150000
1!
b10101 /
#1160000
0!
0-
#1170000
1!
#1180000
0!
1)
1(
0'
0&
1-
#1190000
1!
b10110 /
#1200000
0!
0-
#1210000
1!
#1220000
0!
0*
0)
1&
1-
#1230000
1!
b10111 /
#1240000
0!
0-
#1250000
1!
#1260000
0!
1+
1)
0(
0&
1-
#1270000
1!
b11000 /
#1280000
0!
0-
#1290000
1!
#1300000
0!
0+
1(
1'
0$
1-
#1310000
1!
b11001 /
#1320000
0!
0-
#1330000
1!
#1340000
0!
1+
1&
0%
1$
1-
#1350000
1!
b11010 /
#1360000
0!
0-
#1370000
1!
#1380000
0!
0'
0$
1-
#1390000
1!
b11011 /
#1400000
0!
0-
#1410000
1!
#1420000
0!
0(
1%
1-
#1430000
1!
b11100 /
#1440000
0!
0-
#1450000
1!
#1460000
0!
1*
0)
1-
#1470000
1!
b11101 /
#1480000
0!
0-
#1490000
1!
#1500000
0!
0+
1(
0&
0%
1-
#1510000
1!
b11110 /
#1520000
0!
0-
#1530000
1!
#1540000
0!
0*
0(
1$
1-
#1550000
1!
b11111 /
#1560000
0!
0-
#1570000
1!
#1580000
0!
1&
0$
1-
#1590000
1!
b0 /
01
#1600000
0!
0-
#1610000
0"
1!
11
00
#1620000
0!
#1630000
1!
#1640000
0!
#1650000
1!
#1660000
0!
#1670000
1!
#1680000
0!
#1690000
1!
#1700000
0!
#1710000
1!
#1717000
1"
#1720000
0!
1*
1(
1$
1-
1,
#1730000
1!
b10101010 .
#1740000
0!
1+
0*
1)
1'
0&
#1750000
1!
b10011101 .
#1760000
0!
0+
1*
0(
#1770000
1!
b10010110 .
#1780000
0!
1+
0)
0$
#1790000
1!
b10011 .
#1800000
0!
0*
1)
1(
0'
#1810000
1!
b1101 .
#1820000
0!
1*
0)
0(
1'
1%
#1830000
1!
b1010011 .
#1840000
0!
1(
0'
1&
#1850000
1!
b1101011 .
#1860000
0!
0*
1)
0(
1'
0&
1$
#1870000
1!
b11010101 .
#1880000
0!
0+
1*
0)
0'
0%
0$
#1890000
1!
b10 .
#1900000
0!
1)
1(
1&
1$
#1910000
1!
b10101110 .
#1920000
0!
0-
0,
#1930000
0"
1!
#1940000
0!
#1950000
1!
#1960000
0!
#1970000
1!
#1980000
0!
#1990000
1!
#2000000
0!
#2010000
1!
#2020000
0!
#2030000
1!
#2037000
1"
#2040000
0!
1+
0*
1'
0&
0$
1-
#2050000
1!
b1 /
10
#2060000
0!
0-
#2070000
1!
#2080000
0!
1*
0'
1%
1$
1-
#2090000
1!
b10 /
#2100000
0!
0-
#2110000
1!
#2120000
0!
0)
0(
1&
0%
0$
1-
#2130000
1!
b11 /
#2140000
0!
0-
#2150000
1!
#2160000
0!
0+
1(
0&
1-
#2170000
1!
b100 /
#2180000
0!
0-
#2190000
1!
#2200000
0!
1%
1$
1-
#2210000
1!
b101 /
#2220000
0!
0-
#2230000
1!
#2240000
0!
0*
1)
1'
1&
0%
0$
1-
#2250000
1!
b110 /
#2260000
0!
0-
#2270000
1!
#2280000
0!
1*
0)
0(
1%
1$
1-
#2290000
1!
b111 /
#2300000
0!
0-
#2310000
1!
#2320000
0!
1(
0'
0&
0%
1-
#2330000
1!
b1000 /
#2340000
0!
0-
#2350000
1!
#2360000
0!
1+
0*
0(
1%
0$
1-
#2370000
1!
b1001 /
#2380000
0!
0-
#2390000
1!
#2400000
0!
0+
1(
1'
1$
1-
#2410000
1!
b1010 /
#2420000
0!
0-
#2430000
1!
#2440000
0!
1&
0$
1-
#2450000
1!
b1011 /
#2460000
0!
0-
#2470000
1!
#2480000
0!
1+
0'
0&
0%
1$
1-
#2490000
1!
b1100 /
#2500000
0!
0-
#2510000
1!
#2520000
0!
1*
1&
1%
1-
#2530000
1!
b1101 /
#2540000
0!
0-
#2550000
1!
#2560000
0!
0+
1)
0(
1'
0%
1-
#2570000
1!
b1110 /
#2580000
0!
0-
#2590000
1!
#2600000
0!
0'
0&
1%
1-
#2610000
1!
b1111 /
#2620000
0!
0-
#2630000
1!
#2640000
0!
1(
1&
0%
1-
#2650000
1!
b10000 /
#2660000
0!
0-
#2670000
1!
#2680000
0!
0*
1'
1-
#2690000
1!
b10001 /
#2700000
0!
0-
#2710000
1!
#2720000
0!
1*
0)
0'
0$
1-
#2730000
1!
b10010 /
#2740000
0!
0-
#2750000
1!
#2760000
0!
1+
0&
1-
#2770000
1!
b10011 /
#2780000
0!
0-
#2790000
1!
#2800000
0!
0*
0(
1'
1&
1%
1-
#2810000
1!
b10100 /
#2820000
0!
0-
#2830000
1!
#2840000
0!
1)
0'
0&
0%
1$
1-
#2850000
1!
b10101 /
#2860000
0!
0-
#2870000
1!
#2880000
0!
1*
1(
1%
0$
1-
#2890000
1!
b10110 /
#2900000
0!
0-
#2910000
1!
#2920000
0!
0)
1'
1&
0%
1-
#2930000
1!
b10111 /
#2940000
0!
0-
#2950000
1!
#2960000
0!
0+
1-
#2970000
1!
b11000 /
#2980000
0!
0-
#2990000
1!
#3000000
0!
1)
1%
1-
#3010000
1!
b11001 /
#3020000
0!
0-
#3030000
1!
#3040000
0!
1+
0*
0(
0&
0%
1-
#3050000
1!
b11010 /
#3060000
0!
0-
#3070000
1!
#3080000
0!
0)
1&
1%
1$
1-
#3090000
1!
b11011 /
#3100000
0!
0-
#3110000
1!
#3120000
0!
1(
0&
1-
#3130000
1!
b11100 /
#3140000
0!
0-
#3150000
1!
#3160000
0!
0+
1*
0(
0'
1&
0$
1-
#3170000
1!
b11101 /
#3180000
0!
0-
#3190000
1!
#3200000
0!
0*
1)
1(
0&
1-
#3210000
1!
b11110 /
#3220000
0!
0-
#3230000
1!
#3240000
0!
1+
1*
1'
0%
1$
1-
#3250000
1!
b11111 /
#3260000
0!
0-
#3270000
1!
#3280000
0!
0'
1-
#3290000
1!
b0 /
01
#3300000
0!
0-
#3310000
1!
#3320000
0!
0+
0*
0)
1'
1&
1%
1-
1,
#3330000
1!
b11101 .
#3340000
0!
1+
1*
1)
0(
0%
#3350000
1!
b11001111 .
#3360000
0!
1(
0&
#3370000
1!
b100011 .
#3380000
0!
0+
0*
1%
0$
#3390000
1!
b1010 .
#3400000
0!
1+
1*
0)
#3410000
1!
b11001010 .
#3420000
0!
0*
0'
0%
1$
#3430000
1!
b111100 .
#3440000
0!
1%
0$
#3450000
1!
b11110010 .
#3460000
0!
0+
0(
1'
1$
#3470000
1!
b10001010 .
#3480000
0!
1+
1*
1)
#3490000
1!
b1000001 .
#3500000
0!
0*
0)
0$
#3510000
1!
b11011000 .
#3520000
0!
0-
0,
#3530000
0"
1!
11
00
#3540000
0!
#3550000
1!
#3560000
0!
#3570000
1!
#3580000
0!
#3590000
1!
#3600000
0!
#3610000
1!
#3620000
0!
#3630000
1!
#3637000
1"
#3640000
0!
0+
1*
1)
0%
1$
1-
#3650000
1!
b1 /
10
#3660000
0!
0-
#3670000
1!
#3680000
0!
0*
1(
0'
0$
1-
#3690000
1!
b10 /
#3700000
0!
0-
#3710000
1!
#3720000
0!
1*
0)
0(
1%
1$
1-
#3730000
1!
b11 /
#3740000
0!
0-
#3750000
1!
#3760000
0!
0*
1(
1-
#3770000
1!
b100 /
#3780000
0!
0-
#3790000
1!
#3800000
0!
1+
1*
1)
0(
1'
1&
0$
1-
#3810000
1!
b101 /
#3820000
0!
0-
#3830000
1!
#3840000
0!
0*
1(
0%
1-
#3850000
1!
b110 /
#3860000
0!
0-
#3870000
1!
#3880000
0!
0+
1*
0)
0(
0&
1-
#3890000
1!
b111 /
#3900000
0!
0-
#3910000
1!
#3920000
0!
1)
1(
1&
1%
1-
#3930000
1!
b1000 /
#3940000
0!
0-
#3950000
1!
#3960000
0!
1+
0*
0'
1-
#3970000
1!
b1001 /
#3980000
0!
0-
#3990000
1!
#4000000
0!
0)
1'
0%
1-
#4010000
1!
b1010 /
#4020000
0!
0-
#4030000
1!
#4040000
0!
1*
1)
0&
1-
#4050000
1!
b1011 /
#4060000
0!
0-
#4070000
1!
#4080000
0!
0)
0(
1%
1$
1-
#4090000
1!
b1100 /
#4100000
0!
0-
#4110000
1!
#4120000
0!
0*
1)
0'
0%
1-
#4130000
1!
b1101 /
#4140000
0!
0-
#4150000
1!
#4160000
0!
0+
0)
1(
1'
1&
1%
0$
1-
#4170000
1!
b1110 /
#4180000
0!
0-
#4190000
1!
#4200000
0!
1+
1*
0&
1-
#4210000
1!
b1111 /
#4220000
0!
0-
#4230000
1!
#4240000
0!
0*
0'
1-
#4250000
1!
b10000 /
#4260000
0!
0-
#4270000
1!
#4280000
0!
1*
1)
1'
1&
0%
1-
#4290000
1!
b10001 /
#4300000
0!
0-
#4310000
1!
#4320000
0!
0+
0)
0'
1-
#4330000
1!
b10010 /
#4340000
0!
0-
#4350000
1!
#4360000
0!
0*
1'
0&
1%
1-
#4370000
1!
b10011 /
#4380000
0!
0-
#4390000
1!
#4400000
0!
1*
1)
0(
0'
0%
1$
1-
#4410000
1!
b10100 /
#4420000
0!
0-
#4430000
1!
#4440000
0!
1(
1-
#4450000
1!
b10101 /
#4460000
0!
0-
#4470000
1!
#4480000
0!
0*
1'
1-
#4490000
1!
b10110 /
#4500000
0!
0-
#4510000
1!
#4520000
0!
1*
0)
1&
1%
1-
#4530000
1!
b10111 /
#4540000
0!
0-
#4550000
1!
#4560000
0!
1)
0(
0'
0%
0$
1-
#4570000
1!
b11000 /
#4580000
0!
0-
#4590000
1!
#4600000
0!
1+
0)
1'
1%
1-
#4610000
1!
b11001 /
#4620000
0!
0-
#4630000
1!
#4640000
0!
0'
0%
1$
1-
#4650000
1!
b11010 /
#4660000
0!
0-
#4670000
1!
#4680000
0!
1)
1(
0$
1-
#4690000
1!
b11011 /
#4700000
0!
0-
#4710000
1!
#4720000
0!
0)
0(
1'
1$
1-
#4730000
1!
b11100 /
#4740000
0!
0-
#4750000
1!
#4760000
0!
1)
1(
0&
1%
0$
1-
#4770000
1!
b11101 /
#4780000
0!
0-
#4790000
1!
#4800000
0!
0+
0*
0(
0'
1-
#4810000
1!
b11110 /
#4820000
0!
0-
#4830000
1!
#4840000
0!
1+
1*
1'
1&
1$
1-
#4850000
1!
b11111 /
#4860000
0!
0-
#4870000
1!
#4880000
0!
0)
1(
0'
0&
1-
#4890000
1!
b0 /
01
#4900000
0!
0-
#4910000
1!
#4920000
0!
1,
#4930000
1!
b10010110 .
b11111 /
11
#4940000
0!
0,
#4950000
1!
#4960000
0!
1,
#4970000
1!
b1100 .
b11110 /
#4980000
0!
0,
#4990000
1!
#5000000
0!
1,
#5010000
1!
b11000010 .
b11101 /
#5020000
0!
0,
#5030000
1!
#5040000
0!
1,
#5050000
1!
b11001000 .
b11100 /
#5060000
0!
0,
#5070000
1!
#5080000
0!
1,
#5090000
1!
b1110111 .
b11011 /
#5100000
0!
0,
#5110000
1!
#5120000
0!
1,
#5130000
1!
b111101 .
b11010 /
#5140000
0!
0,
#5150000
1!
#5160000
0!
1,
#5170000
1!
b10010 .
b11001 /
#5180000
0!
0,
#5190000
1!
#5200000
0!
1,
#5210000
1!
b1111110 .
b11000 /
#5220000
0!
0,
#5230000
1!
#5240000
0!
1,
#5250000
1!
b1101101 .
b10111 /
#5260000
0!
0,
#5270000
1!
#5280000
0!
1,
#5290000
1!
b111001 .
b10110 /
#5300000
0!
0,
#5310000
1!
#5320000
0!
1,
#5330000
1!
b11111 .
b10101 /
#5340000
0!
0,
#5350000
1!
#5360000
0!
1,
#5370000
1!
b11010011 .
b10100 /
#5380000
0!
0,
#5390000
1!
#5400000
0!
1,
#5410000
1!
b10000101 .
b10011 /
#5420000
0!
0,
#5430000
1!
#5440000
0!
1,
#5450000
1!
b1111000 .
b10010 /
#5460000
0!
0,
#5470000
1!
#5480000
0!
1,
#5490000
1!
b1011011 .
b10001 /
#5500000
0!
0,
#5510000
1!
#5520000
0!
1,
#5530000
1!
b1001001 .
b10000 /
#5540000
0!
0,
#5550000
1!
#5560000
0!
1,
#5570000
1!
b111111 .
b1111 /
#5580000
0!
0,
#5590000
1!
#5600000
0!
1,
#5610000
1!
b101010 .
b1110 /
#5620000
0!
0,
#5630000
1!
#5640000
0!
1,
#5650000
1!
b1011000 .
b1101 /
#5660000
0!
0,
#5670000
1!
#5680000
0!
1,
#5690000
1!
b10000110 .
b1100 /
#5700000
0!
0,
#5710000
1!
#5720000
0!
1,
#5730000
1!
b10001110 .
b1011 /
#5740000
0!
0,
#5750000
1!
#5760000
0!
1,
#5770000
1!
b10011100 .
b1010 /
#5780000
0!
0,
#5790000
1!
#5800000
0!
1,
#5810000
1!
b11111010 .
b1001 /
#5820000
0!
0,
#5830000
1!
#5840000
0!
1,
#5850000
1!
b100110 .
b1000 /
#5860000
0!
0,
#5870000
1!
#5880000
0!
1,
#5890000
1!
b1110011 .
b111 /
#5900000
0!
0,
#5910000
1!
#5920000
0!
1,
#5930000
1!
b10100011 .
b110 /
#5940000
0!
0,
#5950000
1!
#5960000
0!
1,
#5970000
1!
b101111 .
b101 /
#5980000
0!
0,
#5990000
1!
#6000000
0!
1,
#6010000
1!
b10110011 .
b100 /
#6020000
0!
0,
#6030000
1!
#6040000
0!
1,
#6050000
1!
b1011111 .
b11 /
#6060000
0!
0,
#6070000
1!
#6080000
0!
1,
#6090000
1!
b1000100 .
b10 /
#6100000
0!
0,
#6110000
1!
#6120000
0!
1,
#6130000
1!
b11110111 .
b1 /
#6140000
0!
0,
#6150000
1!
#6160000
0!
1,
#6170000
1!
b11001011 .
b0 /
00
#6180000
0!
0,
#6190000
1!
#6200000
0!
0+
1)
0(
1&
1-
1,
#6210000
1!
b11100110 .
#6220000
0!
0)
1(
1'
0&
0$
#6230000
1!
b1011010 .
#6240000
0!
1+
0*
0'
1&
0%
#6250000
1!
b101001 .
#6260000
0!
1)
1%
1$
#6270000
1!
b11101101 .
#6280000
0!
0+
1*
0)
1'
0&
#6290000
1!
b11011010 .
#6300000
0!
1+
0*
1)
0(
0'
1&
0$
#6310000
1!
b1100101 .
#6320000
0!
1'
0%
1$
#6330000
1!
b10110101 .
#6340000
0!
1*
1(
0&
1%
#6350000
1!
b11011111 .
#6360000
0!
0*
0)
1&
0$
#6370000
1!
b1111001 .
#6380000
0!
0+
1)
0(
0'
0&
#6390000
1!
b1000100 .
#6400000
0!
0-
0,
#6410000
1!
#6420000
0!
0)
1'
1$
1-
#6430000
1!
b1 /
10
#6440000
0!
0-
#6450000
1!
#6460000
0!
1*
1(
0'
1&
0%
0$
1-
#6470000
1!
b10 /
#6480000
0!
0-
#6490000
1!
#6500000
0!
1+
1$
1-
#6510000
1!
b11 /
#6520000
0!
0-
#6530000
1!
#6540000
0!
0+
1)
0&
0$
1-
#6550000
1!
b100 /
#6560000
0!
0-
#6570000
1!
#6580000
0!
0*
1'
1%
1$
1-
#6590000
1!
b101 /
#6600000
0!
0-
#6610000
1!
#6620000
0!
1*
0)
0%
1-
#6630000
1!
b110 /
#6640000
0!
0-
#6650000
1!
#6660000
0!
1+
0*
1)
1&
1%
1-
#6670000
1!
b111 /
#6680000
0!
0-
#6690000
1!
#6700000
0!
1*
0)
0(
0'
0&
1-
#6710000
1!
b1000 /
#6720000
0!
0-
#6730000
1!
#6740000
0!
0+
1)
1'
0$
1-
#6750000
1!
b1001 /
#6760000
0!
0-
#6770000
1!
#6780000
0!
1(
0'
1-
#6790000
1!
b1010 /
#6800000
0!
0-
#6810000
1!
#6820000
0!
1+
0(
1&
1-
#6830000
1!
b1011 /
#6840000
0!
0-
#6850000
1!
#6860000
0!
0+
0)
1(
0&
0%
1-
#6870000
1!
b1100 /
#6880000
0!
0-
#6890000
1!
#6900000
0!
1)
0(
1'
1&
1$
1-
#6910000
1!
b1101 /
#6920000
0!
0-
#6930000
1!
#6940000
0!
0*
0)
1(
0$
1-
#6950000
1!
b1110 /
#6960000
0!
0-
#6970000
1!
#6980000
0!
1+
1%
1-
#6990000
1!
b1111 /
#7000000
0!
0-
#7010000
1!
#7020000
0!
0+
0%
1$
1-
#7030000
1!
b10000 /
#7040000
0!
0-
#7050000
1!
#7060000
0!
1)
0(
0&
1-
#7070000
1!
b10001 /
#7080000
0!
0-
#7090000
1!
#7100000
0!
1+
1*
0)
1-
#7110000
1!
b10010 /
#7120000
0!
0-
#7130000
1!
#7140000
0!
0+
0*
1)
0'
0$
1-
#7150000
1!
b10011 /
#7160000
0!
0-
#7170000
1!
#7180000
0!
1+
0)
1(
1'
1%
1-
#7190000
1!
b10100 /
#7200000
0!
0-
#7210000
1!
#7220000
0!
1*
1$
1-
#7230000
1!
b10101 /
#7240000
0!
0-
#7250000
1!
#7260000
0!
0*
1)
0'
0$
1-
#7270000
1!
b10110 /
#7280000
0!
0-
#7290000
1!
#7300000
0!
0)
1'
1$
1-
#7310000
1!
b10111 /
#7320000
0!
0-
#7330000
1!
#7340000
0!
1)
0'
1&
0$
1-
#7350000
1!
b11000 /
#7360000
0!
0-
#7370000
1!
#7380000
0!
0+
1*
0(
1'
1-
#7390000
1!
b11001 /
#7400000
0!
0-
#7410000
1!
#7420000
0!
0)
1(
0'
0&
1$
1-
#7430000
1!
b11010 /
#7440000
0!
0-
#7450000
1!
#7460000
0!
1)
0(
1'
1&
0%
1-
#7470000
1!
b11011 /
#7480000
0!
0-
#7490000
1!
#7500000
0!
1+
0*
0&
1-
#7510000
1!
b11100 /
#7520000
0!
0-
#7530000
1!
#7540000
0!
0+
1*
0'
1%
0$
1-
#7550000
1!
b11101 /
#7560000
0!
0-
#7570000
1!
#7580000
0!
0*
0%
1-
#7590000
1!
b11110 /
#7600000
0!
0-
#7610000
1!
#7620000
0!
1+
1*
1'
1&
1%
1$
1-
#7630000
1!
b11111 /
#7640000
0!
0-
#7650000
1!
#7660000
0!
0*
0)
1(
0'
0$
1-
#7670000
1!
b0 /
01
#7680000
0!
0-
#7690000
1!
#7700000
0!
0+
1)
0(
1'
0%
1$
1-
1,
#7710000
1!
b11010000 .
#7720000
0!
0)
1(
0'
0&
#7730000
1!
b101010 .
#7740000
0!
1&
0$
#7750000
1!
b10101011 .
#7760000
0!
1+
1)
#7770000
1!
b1110 .
#7780000
0!
1*
0(
0&
1%
1$
#7790000
1!
b11011100 .
#7800000
0!
0+
1(
1&
0%
0$
#7810000
1!
b10011010 .
#7820000
0!
0*
0)
0&
#7830000
1!
b11111101 .
#7840000
0!
1)
1'
#7850000
1!
b11000011 .
#7860000
0!
1+
1&
1%
1$
#7870000
1!
b1010110 .
#7880000
0!
0)
0'
0%
0$
#7890000
1!
b1001110 .
#7900000
0!
0-
0,
#7910000
1!
#7920000
0!
1,
#7930000
1!
b1100111 .
b11111 /
11
#7940000
0!
0,
#7950000
1!
#7960000
0!
1,
#7970000
1!
b1010 .
b11110 /
#7980000
0!
0,
#7990000
1!
#8000000
0!
1,
#8010000
1!
b10110110 .
b11101 /
#8020000
0!
0,
#8030000
1!
#8040000
0!
1,
#8050000
1!
b111000 .
b11100 /
#8060000
0!
0,
#8070000
1!
#8080000
0!
1,
#8090000
1!
b1111001 .
b11011 /
#8100000
0!
0,
#8110000
1!
#8120000
0!
1,
#8130000
1!
b10111000 .
b11010 /
#8140000
0!
0,
#8150000
1!
#8160000
0!
1,
#8170000
1!
b10010100 .
b11001 /
#8180000
0!
0,
#8190000
1!
#8200000
0!
1,
#8210000
1!
b10010011 .
b11000 /
#8220000
0!
0,
#8230000
1!
#8240000
0!
1,
#8250000
1!
b100 .
b10111 /
#8260000
0!
0,
#8270000
1!
#8280000
0!
1,
#8290000
1!
b1011001 .
b10110 /
#8300000
0!
0,
#8310000
1!
#8320000
0!
1,
#8330000
1!
b11011011 .
b10101 /
#8340000
0!
0,
#8350000
1!
#8360000
0!
1,
#8370000
1!
b1001101 .
b10100 /
#8380000
0!
0,
#8390000
1!
#8400000
0!
1,
#8410000
1!
b11011001 .
b10011 /
#8420000
0!
0,
#8430000
1!
#8440000
0!
1,
#8450000
1!
b1101101 .
b10010 /
#8460000
0!
0,
#8470000
1!
#8480000
0!
1,
#8490000
1!
b1110110 .
b10001 /
#8500000
0!
0,
#8510000
1!
#8520000
0!
1,
#8530000
1!
b11001010 .
b10000 /
#8540000
0!
0,
#8550000
1!
#8560000
0!
1,
#8570000
1!
b10110110 .
b1111 /
#8580000
0!
0,
#8590000
1!
#8600000
0!
1,
#8610000
1!
b10010101 .
b1110 /
#8620000
0!
0,
#8630000
1!
#8640000
0!
1,
#8650000
1!
b1000110 .
b1101 /
#8660000
0!
0,
#8670000
1!
#8680000
0!
1,
#8690000
1!
b100 .
b1100 /
#8700000
0!
0,
#8710000
1!
#8720000
0!
1,
#8730000
1!
b11110111 .
b1011 /
#8740000
0!
0,
#8750000
1!
#8760000
0!
1,
#8770000
1!
b1101001 .
b1010 /
#8780000
0!
0,
#8790000
1!
#8800000
0!
1,
#8810000
1!
b10110100 .
b1001 /
#8820000
0!
0,
#8830000
1!
#8840000
0!
1,
#8850000
1!
b10001000 .
b1000 /
#8860000
0!
0,
#8870000
1!
#8880000
0!
1,
#8890000
1!
b101000 .
b111 /
#8900000
0!
0,
#8910000
1!
#8920000
0!
1,
#8930000
1!
b101101 .
b110 /
#8940000
0!
0,
#8950000
1!
#8960000
0!
1,
#8970000
1!
b11000111 .
b101 /
#8980000
0!
0,
#8990000
1!
#9000000
0!
1,
#9010000
1!
b101110 .
b100 /
#9020000
0!
0,
#9030000
1!
#9040000
0!
1,
#9050000
1!
b1000 .
b11 /
#9060000
0!
0,
#9070000
1!
#9080000
0!
1,
#9090000
1!
b11100 .
b10 /
#9100000
0!
0,
#9110000
1!
#9120000
0!
1,
#9130000
1!
b11111101 .
b1 /
#9140000
0!
0,
#9150000
1!
#9160000
0!
1,
#9170000
1!
b101001 .
b0 /
00
#9180000
0!
0,
#9190000
0"
1!
#9200000
0!
#9210000
1!
#9220000
0!
#9230000
1!
#9240000
0!
#9250000
1!
#9260000
0!
#9270000
1!
#9280000
0!
#9290000
1!
#9297000
1"
#9300000
0!
0+
0(
1'
1%
1-
1,
#9310000
1!
b1110000 .
#9320000
0!
0,
0-
#9330000
1!
#9340000
0!
1*
1)
1(
0&
1-
1,
#9350000
1!
b1011110 .
#9360000
0!
0,
0-
#9370000
1!
#9380000
0!
0)
0%
1-
#9390000
1!
b1 /
10
#9400000
0!
0-
#9410000
1!
#9420000
0!
1)
0(
1$
1-
1,
#9430000
1!
b11010 .
#9440000
0!
0,
0-
#9450000
1!
#9460000
0!
1,
#9470000
1!
b10010110 .
b0 /
00
#9480000
0!
0,
#9490000
1!
#9500000
0!
1&
1-
#9510000
1!
b1 /
10
#9520000
0!
0-
#9530000
1!
#9540000
0!
1,
#9550000
1!
b10110110 .
b0 /
00
#9560000
0!
0,
#9570000
1!
#9580000
0!
0'
0&
1-
1,
#9590000
1!
b10000110 .
#9600000
0!
0,
0-
#9610000
1!
#9620000
0!
1+
0)
1(
1'
1%
1-
1,
#9630000
1!
b11011011 .
#9640000
0!
0,
0-
#9650000
1!
#9660000
0!
0+
1&
1-
1,
#9670000
1!
b11111010 .
#9680000
0!
0,
0-
#9690000
1!
#9700000
0!
1+
0*
0(
0'
0%
1-
1,
#9710000
1!
b10100001 .
#9720000
0!
0,
0-
#9730000
1!
#9740000
0!
1)
1'
0$
1-
1,
#9750000
1!
b110101 .
#9760000
0!
0,
0-
#9770000
1!
#9780000
0!
0'
0&
1%
1$
1-
#9790000
1!
b1 /
10
#9800000
0!
0-
#9810000
1!
#9820000
0!
1*
0)
1'
1&
0$
1-
1,
#9830000
1!
b11000101 .
#9840000
0!
0,
0-
#9850000
1!
#9860000
0!
1,
#9870000
1!
b1110011 .
b0 /
00
#9880000
0!
0,
#9890000
1!
#9900000
0!
0*
0'
0%
1$
1-
#9910000
1!
b1 /
10
#9920000
0!
0-
#9930000
1!
#9940000
0!
0+
1*
1)
1%
1-
#9950000
1!
b10 /
#9960000
0!
0-
#9970000
1!
#9980000
0!
1,
#9990000
1!
b10100001 .
b1 /
#10000000
0!
0,
#10010000
1!
#10020000
0!
1,
#10030000
1!
b11100110 .
b0 /
00
#10040000
0!
0,
#10050000
1!
#10060000
0!
1+
0*
1(
0&
0%
1-
1,
#10070000
1!
b10001101 .
#10080000
0!
0,
0-
#10090000
1!
#10100000
0!
1*
0)
0(
1'
0$
1-
1,
#10110000
1!
b10011 .
#10120000
0!
0,
0-
#10130000
1!
#10140000
0!
1)
0'
1%
1$
1-
1,
#10150000
1!
b11000111 .
#10160000
0!
0,
0-
#10170000
1!
#10180000
0!
0+
0)
1(
1'
1&
0%
1-
#10190000
1!
b1 /
10
#10200000
0!
0-
#10210000
1!
#10220000
0!
1+
0*
1-
#10230000
1!
b10 /
#10240000
0!
0-
#10250000
1!
#10260000
0!
1,
#10270000
1!
b10111010 .
b1 /
#10280000
0!
0,
#10290000
1!
#10300000
0!
0+
1*
1)
0(
0'
0&
1-
#10310000
1!
b10 /
#10320000
0!
0-
#10330000
1!
#10340000
0!
1,
#10350000
1!
b10111001 .
b1 /
#10360000
0!
0,
#10370000
1!
#10380000
0!
1,
#10390000
1!
b10000110 .
b0 /
00
#10400000
0!
0,
#10410000
1!
#10420000
0!
0*
1&
1%
1-
1,
#10430000
1!
b11100100 .
#10440000
0!
0,
0-
#10450000
1!
#10460000
0!
1+
0)
1(
0%
1-
#10470000
1!
b1 /
10
#10480000
0!
0-
#10490000
1!
#10500000
0!
1,
#10510000
1!
b10101001 .
b0 /
00
#10520000
0!
0,
#10530000
1!
#10540000
0!
0+
1*
1)
0(
1'
0$
1-
#10550000
1!
b1 /
10
#10560000
0!
0-
#10570000
1!
#10580000
0!
0*
0)
1(
0'
0&
1$
1-
#10590000
1!
b10 /
#10600000
0!
0-
#10610000
1!
#10620000
0!
1*
0(
1'
1-
#10630000
1!
b11 /
#10640000
0!
0-
#10650000
1!
#10660000
0!
1,
#10670000
1!
b110110 .
b10 /
#10680000
0!
0,
#10690000
1!
