FIFO_TB_good4.vcd
$date
	Wed Aug 13 08:51:24 2025
$end
$version
	QuestaSim Version 2024.3_1
$end
$timescale
	1ns
$end

$scope module FIFO_tb_v0 $end

$scope module DUV $end
$var parameter 32 ! DEPTH $end
$var parameter 32 " WIDTH $end
$var reg 1 # CLEAR_N $end
$var reg 1 $ CLOCK $end
$var reg 8 % DATA_IN [7:0] $end
$var reg 8 & DATA_OUT [7:0] $end
$var reg 1 ' F_EMPTY_N $end
$var reg 1 ( F_FULL_N $end
$var reg 1 ) READ $end
$var reg 1 * RESET_N $end
$var reg 6 + USE_DW [5:0] $end
$var reg 1 , WRITE $end

$scope begin sobrellenado $end
$upscope $end

$scope begin sobrevaciado $end
$upscope $end
$upscope $end
$upscope $end
$enddefinitions $end
#0
$dumpvars
b100000 !
b1000 "
1#
0$
b0 %
bx &
0'
1(
0)
x*
b0 +
0,
$end
#10
1$
0*
b0 &
#20
0$
#30
1$
#40
0$
#50
1$
#60
0$
#70
1$
#80
0$
#90
1$
#97
1*
#100
0$
b100100 %
1,
#110
1$
b1 +
1'
#120
0$
0,
#130
1$
#140
0$
b10000001 %
1,
#150
1$
b10 +
#160
0$
0,
#170
1$
#180
0$
1)
#190
1$
b1 +
b100100 &
#200
0$
0)
#210
0*
1$
b0 +
0'
b0 &
#220
0$
#230
1$
#240
0$
#250
1$
#260
0$
#270
1$
#280
0$
#290
1$
#300
0$
#310
1$
#317
1*
#320
0$
b1001 %
1,
#330
1$
b1 +
1'
#340
0$
0,
#350
1$
#360
0$
b1100011 %
1,
#370
1$
b10 +
#380
0$
0,
#390
1$
#400
0$
b1101 %
1,
#410
1$
b11 +
#420
0$
0,
#430
1$
#440
0$
b10001101 %
1,
#450
1$
b100 +
#460
0$
0,
#470
1$
#480
0$
b1100101 %
1,
#490
1$
b101 +
#500
0$
0,
#510
1$
#520
0$
b10010 %
1,
#530
1$
b110 +
#540
0$
0,
#550
1$
#560
0$
b1 %
1,
#570
1$
b111 +
#580
0$
0,
#590
1$
#600
0$
b1101 %
1,
#610
1$
b1000 +
#620
0$
0,
#630
1$
#640
0$
b1110110 %
1,
#650
1$
b1001 +
#660
0$
0,
#670
1$
#680
0$
b111101 %
1,
#690
1$
b1010 +
#700
0$
0,
#710
1$
#720
0$
b11101101 %
1,
#730
1$
b1011 +
#740
0$
0,
#750
1$
#760
0$
b10001100 %
1,
#770
1$
b1100 +
#780
0$
0,
#790
1$
#800
0$
b11111001 %
1,
#810
1$
b1101 +
#820
0$
0,
#830
1$
#840
0$
b11000110 %
1,
#850
1$
b1110 +
#860
0$
0,
#870
1$
#880
0$
b11000101 %
1,
#890
1$
b1111 +
#900
0$
0,
#910
1$
#920
0$
b10101010 %
1,
#930
1$
b10000 +
#940
0$
0,
#950
1$
#960
0$
b11100101 %
1,
#970
1$
b10001 +
#980
0$
0,
#990
1$
#1000
0$
b1110111 %
1,
#1010
1$
b10010 +
#1020
0$
0,
#1030
1$
#1040
0$
b10010 %
1,
#1050
1$
b10011 +
#1060
0$
0,
#1070
1$
#1080
0$
b10001111 %
1,
#1090
1$
b10100 +
#1100
0$
0,
#1110
1$
#1120
0$
b11110010 %
1,
#1130
1$
b10101 +
#1140
0$
0,
#1150
1$
#1160
0$
b11001110 %
1,
#1170
1$
b10110 +
#1180
0$
0,
#1190
1$
#1200
0$
b11101000 %
1,
#1210
1$
b10111 +
#1220
0$
0,
#1230
1$
#1240
0$
b11000101 %
1,
#1250
1$
b11000 +
#1260
0$
0,
#1270
1$
#1280
0$
b1011100 %
1,
#1290
1$
b11001 +
#1300
0$
0,
#1310
1$
#1320
0$
b10111101 %
1,
#1330
1$
b11010 +
#1340
0$
0,
#1350
1$
#1360
0$
b101101 %
1,
#1370
1$
b11011 +
#1380
0$
0,
#1390
1$
#1400
0$
b1100101 %
1,
#1410
1$
b11100 +
#1420
0$
0,
#1430
1$
#1440
0$
b1100011 %
1,
#1450
1$
b11101 +
#1460
0$
0,
#1470
1$
#1480
0$
b1010 %
1,
#1490
1$
b11110 +
#1500
0$
0,
#1510
1$
#1520
0$
b10000000 %
1,
#1530
1$
b11111 +
#1540
0$
0,
#1550
1$
#1560
0$
b100000 %
1,
#1570
1$
b100000 +
0(
#1580
0$
0,
#1590
0*
1$
b0 +
1(
0'
#1600
0$
#1610
1$
#1620
0$
#1630
1$
#1640
0$
#1650
1$
#1660
0$
#1670
1$
#1680
0$
#1690
1$
#1697
1*
#1700
0$
b10101010 %
1,
1)
#1710
1$
b10101010 &
#1720
0$
b10011101 %
#1730
1$
b10011101 &
#1740
0$
b10010110 %
#1750
1$
b10010110 &
#1760
0$
b10011 %
#1770
1$
b10011 &
#1780
0$
b1101 %
#1790
1$
b1101 &
#1800
0$
b1010011 %
#1810
1$
b1010011 &
#1820
0$
b1101011 %
#1830
1$
b1101011 &
#1840
0$
b11010101 %
#1850
1$
b11010101 &
#1860
0$
b10 %
#1870
1$
b10 &
#1880
0$
b10101110 %
#1890
1$
b10101110 &
#1900
0$
0,
0)
#1910
0*
1$
b0 &
#1920
0$
#1930
1$
#1940
0$
#1950
1$
#1960
0$
#1970
1$
#1980
0$
#1990
1$
#2000
0$
#2010
1$
#2017
1*
#2020
0$
b11101 %
1,
#2030
1$
b1 +
1'
#2040
0$
0,
#2050
1$
#2060
0$
b11001111 %
1,
#2070
1$
b10 +
#2080
0$
0,
#2090
1$
#2100
0$
b100011 %
1,
#2110
1$
b11 +
#2120
0$
0,
#2130
1$
#2140
0$
b1010 %
1,
#2150
1$
b100 +
#2160
0$
0,
#2170
1$
#2180
0$
b11001010 %
1,
#2190
1$
b101 +
#2200
0$
0,
#2210
1$
#2220
0$
b111100 %
1,
#2230
1$
b110 +
#2240
0$
0,
#2250
1$
#2260
0$
b11110010 %
1,
#2270
1$
b111 +
#2280
0$
0,
#2290
1$
#2300
0$
b10001010 %
1,
#2310
1$
b1000 +
#2320
0$
0,
#2330
1$
#2340
0$
b1000001 %
1,
#2350
1$
b1001 +
#2360
0$
0,
#2370
1$
#2380
0$
b11011000 %
1,
#2390
1$
b1010 +
#2400
0$
0,
#2410
1$
#2420
0$
b1111000 %
1,
#2430
1$
b1011 +
#2440
0$
0,
#2450
1$
#2460
0$
b10001001 %
1,
#2470
1$
b1100 +
#2480
0$
0,
#2490
1$
#2500
0$
b11101011 %
1,
#2510
1$
b1101 +
#2520
0$
0,
#2530
1$
#2540
0$
b10110110 %
1,
#2550
1$
b1110 +
#2560
0$
0,
#2570
1$
#2580
0$
b11000110 %
1,
#2590
1$
b1111 +
#2600
0$
0,
#2610
1$
#2620
0$
b10101110 %
1,
#2630
1$
b10000 +
#2640
0$
0,
#2650
1$
#2660
0$
b10111100 %
1,
#2670
1$
b10001 +
#2680
0$
0,
#2690
1$
#2700
0$
b101010 %
1,
#2710
1$
b10010 +
#2720
0$
0,
#2730
1$
#2740
0$
b1011 %
1,
#2750
1$
b10011 +
#2760
0$
0,
#2770
1$
#2780
0$
b1110001 %
1,
#2790
1$
b10100 +
#2800
0$
0,
#2810
1$
#2820
0$
b10000101 %
1,
#2830
1$
b10101 +
#2840
0$
0,
#2850
1$
#2860
0$
b1001111 %
1,
#2870
1$
b10110 +
#2880
0$
0,
#2890
1$
#2900
0$
b111011 %
1,
#2910
1$
b10111 +
#2920
0$
0,
#2930
1$
#2940
0$
b111010 %
1,
#2950
1$
b11000 +
#2960
0$
0,
#2970
1$
#2980
0$
b1111110 %
1,
#2990
1$
b11001 +
#3000
0$
0,
#3010
1$
#3020
0$
b10101 %
1,
#3030
1$
b11010 +
#3040
0$
0,
#3050
1$
#3060
0$
b11110001 %
1,
#3070
1$
b11011 +
#3080
0$
0,
#3090
1$
#3100
0$
b11011001 %
1,
#3110
1$
b11100 +
#3120
0$
0,
#3130
1$
#3140
0$
b1100010 %
1,
#3150
1$
b11101 +
#3160
0$
0,
#3170
1$
#3180
0$
b1001100 %
1,
#3190
1$
b11110 +
#3200
0$
0,
#3210
1$
#3220
0$
b10011111 %
1,
#3230
1$
b11111 +
#3240
0$
0,
#3250
1$
#3260
0$
b10001111 %
1,
#3270
1$
b100000 +
0(
#3280
0$
0,
#3290
1$
#3300
0$
b11111000 %
1,
1)
#3310
1$
b11101 &
#3320
0$
b10110111 %
#3330
1$
b11001111 &
#3340
0$
b10011111 %
#3350
1$
b100011 &
#3360
0$
b1011100 %
#3370
1$
b1010 &
#3380
0$
b1011011 %
#3390
1$
b11001010 &
#3400
0$
b10001001 %
#3410
1$
b111100 &
#3420
0$
b1001001 %
#3430
1$
b11110010 &
#3440
0$
b11010000 %
#3450
1$
b10001010 &
#3460
0$
b11010111 %
#3470
1$
b1000001 &
#3480
0$
b1010001 %
#3490
1$
b11011000 &
#3500
0$
0,
0)
#3510
0*
1$
b0 +
1(
0'
b0 &
#3520
0$
#3530
1$
#3540
0$
#3550
1$
#3560
0$
#3570
1$
#3580
0$
#3590
1$
#3600
0$
#3610
1$
#3617
1*
#3620
0$
b10010110 %
1,
#3630
1$
b1 +
1'
#3640
0$
0,
#3650
1$
#3660
0$
b1100 %
1,
#3670
1$
b10 +
#3680
0$
0,
#3690
1$
#3700
0$
b11000010 %
1,
#3710
1$
b11 +
#3720
0$
0,
#3730
1$
#3740
0$
b11001000 %
1,
#3750
1$
b100 +
#3760
0$
0,
#3770
1$
#3780
0$
b1110111 %
1,
#3790
1$
b101 +
#3800
0$
0,
#3810
1$
#3820
0$
b111101 %
1,
#3830
1$
b110 +
#3840
0$
0,
#3850
1$
#3860
0$
b10010 %
1,
#3870
1$
b111 +
#3880
0$
0,
#3890
1$
#3900
0$
b1111110 %
1,
#3910
1$
b1000 +
#3920
0$
0,
#3930
1$
#3940
0$
b1101101 %
1,
#3950
1$
b1001 +
#3960
0$
0,
#3970
1$
#3980
0$
b111001 %
1,
#3990
1$
b1010 +
#4000
0$
0,
#4010
1$
#4020
0$
b11111 %
1,
#4030
1$
b1011 +
#4040
0$
0,
#4050
1$
#4060
0$
b11010011 %
1,
#4070
1$
b1100 +
#4080
0$
0,
#4090
1$
#4100
0$
b10000101 %
1,
#4110
1$
b1101 +
#4120
0$
0,
#4130
1$
#4140
0$
b1111000 %
1,
#4150
1$
b1110 +
#4160
0$
0,
#4170
1$
#4180
0$
b1011011 %
1,
#4190
1$
b1111 +
#4200
0$
0,
#4210
1$
#4220
0$
b1001001 %
1,
#4230
1$
b10000 +
#4240
0$
0,
#4250
1$
#4260
0$
b111111 %
1,
#4270
1$
b10001 +
#4280
0$
0,
#4290
1$
#4300
0$
b101010 %
1,
#4310
1$
b10010 +
#4320
0$
0,
#4330
1$
#4340
0$
b1011000 %
1,
#4350
1$
b10011 +
#4360
0$
0,
#4370
1$
#4380
0$
b10000110 %
1,
#4390
1$
b10100 +
#4400
0$
0,
#4410
1$
#4420
0$
b10001110 %
1,
#4430
1$
b10101 +
#4440
0$
0,
#4450
1$
#4460
0$
b10011100 %
1,
#4470
1$
b10110 +
#4480
0$
0,
#4490
1$
#4500
0$
b11111010 %
1,
#4510
1$
b10111 +
#4520
0$
0,
#4530
1$
#4540
0$
b100110 %
1,
#4550
1$
b11000 +
#4560
0$
0,
#4570
1$
#4580
0$
b1110011 %
1,
#4590
1$
b11001 +
#4600
0$
0,
#4610
1$
#4620
0$
b10100011 %
1,
#4630
1$
b11010 +
#4640
0$
0,
#4650
1$
#4660
0$
b101111 %
1,
#4670
1$
b11011 +
#4680
0$
0,
#4690
1$
#4700
0$
b10110011 %
1,
#4710
1$
b11100 +
#4720
0$
0,
#4730
1$
#4740
0$
b1011111 %
1,
#4750
1$
b11101 +
#4760
0$
0,
#4770
1$
#4780
0$
b1000100 %
1,
#4790
1$
b11110 +
#4800
0$
0,
#4810
1$
#4820
0$
b11110111 %
1,
#4830
1$
b11111 +
#4840
0$
0,
#4850
1$
#4860
0$
b11001011 %
1,
#4870
1$
b100000 +
0(
#4880
0$
0,
#4890
1$
#4900
0$
1)
#4910
1$
b11111 +
1(
b10010110 &
#4920
0$
0)
#4930
1$
#4940
0$
1)
#4950
1$
b11110 +
b1100 &
#4960
0$
0)
#4970
1$
#4980
0$
1)
#4990
1$
b11101 +
b11000010 &
#5000
0$
0)
#5010
1$
#5020
0$
1)
#5030
1$
b11100 +
b11001000 &
#5040
0$
0)
#5050
1$
#5060
0$
1)
#5070
1$
b11011 +
b1110111 &
#5080
0$
0)
#5090
1$
#5100
0$
1)
#5110
1$
b11010 +
b111101 &
#5120
0$
0)
#5130
1$
#5140
0$
1)
#5150
1$
b11001 +
b10010 &
#5160
0$
0)
#5170
1$
#5180
0$
1)
#5190
1$
b11000 +
b1111110 &
#5200
0$
0)
#5210
1$
#5220
0$
1)
#5230
1$
b10111 +
b1101101 &
#5240
0$
0)
#5250
1$
#5260
0$
1)
#5270
1$
b10110 +
b111001 &
#5280
0$
0)
#5290
1$
#5300
0$
1)
#5310
1$
b10101 +
b11111 &
#5320
0$
0)
#5330
1$
#5340
0$
1)
#5350
1$
b10100 +
b11010011 &
#5360
0$
0)
#5370
1$
#5380
0$
1)
#5390
1$
b10011 +
b10000101 &
#5400
0$
0)
#5410
1$
#5420
0$
1)
#5430
1$
b10010 +
b1111000 &
#5440
0$
0)
#5450
1$
#5460
0$
1)
#5470
1$
b10001 +
b1011011 &
#5480
0$
0)
#5490
1$
#5500
0$
1)
#5510
1$
b10000 +
b1001001 &
#5520
0$
0)
#5530
1$
#5540
0$
1)
#5550
1$
b1111 +
b111111 &
#5560
0$
0)
#5570
1$
#5580
0$
1)
#5590
1$
b1110 +
b101010 &
#5600
0$
0)
#5610
1$
#5620
0$
1)
#5630
1$
b1101 +
b1011000 &
#5640
0$
0)
#5650
1$
#5660
0$
1)
#5670
1$
b1100 +
b10000110 &
#5680
0$
0)
#5690
1$
#5700
0$
1)
#5710
1$
b1011 +
b10001110 &
#5720
0$
0)
#5730
1$
#5740
0$
1)
#5750
1$
b1010 +
b10011100 &
#5760
0$
0)
#5770
1$
#5780
0$
1)
#5790
1$
b1001 +
b11111010 &
#5800
0$
0)
#5810
1$
#5820
0$
1)
#5830
1$
b1000 +
b100110 &
#5840
0$
0)
#5850
1$
#5860
0$
1)
#5870
1$
b111 +
b1110011 &
#5880
0$
0)
#5890
1$
#5900
0$
1)
#5910
1$
b110 +
b10100011 &
#5920
0$
0)
#5930
1$
#5940
0$
1)
#5950
1$
b101 +
b101111 &
#5960
0$
0)
#5970
1$
#5980
0$
1)
#5990
1$
b100 +
b10110011 &
#6000
0$
0)
#6010
1$
#6020
0$
1)
#6030
1$
b11 +
b1011111 &
#6040
0$
0)
#6050
1$
#6060
0$
1)
#6070
1$
b10 +
b1000100 &
#6080
0$
0)
#6090
1$
#6100
0$
1)
#6110
1$
b1 +
b11110111 &
#6120
0$
0)
#6130
1$
#6140
0$
1)
#6150
1$
b0 +
0'
b11001011 &
#6160
0$
0)
#6170
1$
#6180
0$
b11100110 %
1,
1)
#6190
1$
b11100110 &
#6200
0$
b1011010 %
#6210
1$
b1011010 &
#6220
0$
b101001 %
#6230
1$
b101001 &
#6240
0$
b11101101 %
#6250
1$
b11101101 &
#6260
0$
b11011010 %
#6270
1$
b11011010 &
#6280
0$
b1100101 %
#6290
1$
b1100101 &
#6300
0$
b10110101 %
#6310
1$
b10110101 &
#6320
0$
b11011111 %
#6330
1$
b11011111 &
#6340
0$
b1111001 %
#6350
1$
b1111001 &
#6360
0$
b1000100 %
#6370
1$
b1000100 &
#6380
0$
0,
0)
#6390
0*
1$
b0 &
#6400
0$
#6410
1$
#6420
0$
#6430
1$
#6440
0$
#6450
1$
#6460
0$
#6470
1$
#6480
0$
#6490
1$
#6497
1*
#6500
0$
b10101011 %
1,
1)
#6510
1$
b10101011 &
#6520
0$
0)
0,
#6530
1$
#6540
0$
b10011010 %
1,
1)
#6550
1$
b10011010 &
#6560
0$
0)
0,
#6570
1$
#6580
0$
b1001110 %
1,
1)
#6590
1$
b1001110 &
#6600
0$
0)
0,
#6610
1$
#6620
0$
b111000 %
1,
1)
#6630
1$
b111000 &
#6640
0$
0)
0,
#6650
1$
#6660
0$
b10010011 %
1,
#6670
1$
b1 +
1'
#6680
0$
0,
#6690
1$
#6700
0$
1)
#6710
1$
b0 +
0'
b10010011 &
#6720
0$
0)
#6730
1$
#6740
0$
b10010101 %
1,
1)
#6750
1$
b10010101 &
#6760
0$
0)
0,
#6770
1$
#6780
0$
b11110111 %
1,
#6790
1$
b1 +
1'
#6800
0$
0,
#6810
1$
#6820
0$
b10110100 %
1,
#6830
1$
b10 +
#6840
0$
0,
#6850
1$
#6860
0$
b101000 %
1,
#6870
1$
b11 +
#6880
0$
0,
#6890
1$
#6900
0$
1)
#6910
1$
b10 +
b11110111 &
#6920
0$
0)
#6930
1$
#6940
0$
1)
#6950
1$
b1 +
b10110100 &
#6960
0$
0)
#6970
1$
#6980
0$
1)
#6990
1$
b0 +
0'
b101000 &
#7000
0$
0)
#7010
1$
#7020
0$
b11111101 %
1,
1)
#7030
1$
b11111101 &
#7040
0$
0)
0,
#7050
1$
#7060
0$
b11100 %
1,
#7070
1$
b1 +
1'
#7080
0$
0,
#7090
1$
#7100
0$
1)
#7110
1$
b0 +
0'
b11100 &
#7120
0$
0)
#7130
1$
#7140
0$
b1110000 %
1,
1)
#7150
1$
b1110000 &
#7160
0$
0)
0,
#7170
1$
#7180
0$
b1011110 %
1,
1)
#7190
1$
b1011110 &
#7200
0$
0)
0,
#7210
1$
#7220
0$
b11010 %
1,
#7230
1$
b1 +
1'
#7240
0$
0,
#7250
1$
#7260
0$
b10010110 %
1,
1)
#7270
1$
b11010 &
#7280
0$
0)
0,
#7290
1$
#7300
0$
1)
#7310
1$
b0 +
0'
b10010110 &
#7320
0$
0)
#7330
1$
#7340
0$
b10110110 %
1,
#7350
1$
b1 +
1'
#7360
0$
0,
#7370
1$
#7380
0$
1)
#7390
1$
b0 +
0'
b10110110 &
#7400
0$
0)
#7410
1$
#7420
0$
b10000110 %
1,
1)
#7430
1$
b10000110 &
#7440
0$
0)
0,
#7450
1$
#7460
0$
b11011011 %
1,
1)
#7470
1$
b11011011 &
#7480
0$
0)
0,
#7490
1$
#7500
0$
b11111010 %
1,
1)
#7510
1$
b11111010 &
#7520
0$
0)
0,
#7530
1$
#7540
0$
b10100001 %
1,
1)
#7550
1$
b10100001 &
#7560
0$
0)
0,
#7570
1$
#7580
0$
b110101 %
1,
1)
#7590
1$
b110101 &
#7600
0$
0)
0,
#7610
1$
#7620
0$
b11000101 %
1,
#7630
1$
b1 +
1'
#7640
0$
0,
#7650
1$
#7660
0$
b1110011 %
1,
1)
#7670
1$
b11000101 &
#7680
0$
0)
0,
#7690
1$
#7700
0$
1)
#7710
1$
b0 +
0'
b1110011 &
#7720
0$
0)
#7730
1$
#7740
0$
b10100001 %
1,
#7750
1$
b1 +
1'
#7760
0$
0,
#7770
1$
#7780
0$
b11100110 %
1,
#7790
1$
b10 +
#7800
0$
0,
#7810
1$
#7820
0$
1)
#7830
1$
b1 +
b10100001 &
#7840
0$
0)
#7850
1$
#7860
0$
1)
#7870
1$
b0 +
0'
b11100110 &
#7880
0$
0)
#7890
1$
#7900
0$
b10001101 %
1,
1)
#7910
1$
b10001101 &
#7920
0$
0)
0,
#7930
1$
#7940
0$
b10011 %
1,
1)
#7950
1$
b10011 &
#7960
0$
0)
0,
#7970
1$
#7980
0$
b11000111 %
1,
1)
#7990
1$
b11000111 &
#8000
0$
0)
0,
#8010
1$
#8020
0$
b10111010 %
1,
#8030
1$
b1 +
1'
#8040
0$
0,
#8050
1$
#8060
0$
b10111001 %
1,
#8070
1$
b10 +
#8080
0$
0,
#8090
1$
#8100
0$
1)
#8110
1$
b1 +
b10111010 &
#8120
0$
0)
#8130
1$
#8140
0$
b10000110 %
1,
#8150
1$
b10 +
#8160
0$
0,
#8170
1$
#8180
0$
1)
#8190
1$
b1 +
b10111001 &
#8200
0$
0)
#8210
1$
#8220
0$
1)
#8230
1$
b0 +
0'
b10000110 &
#8240
0$
0)
#8250
1$
#8260
0$
b11100100 %
1,
1)
#8270
1$
b11100100 &
#8280
0$
0)
0,
#8290
1$
#8300
0$
b10101001 %
1,
#8310
1$
b1 +
1'
#8320
0$
0,
#8330
1$
#8340
0$
1)
#8350
1$
b0 +
0'
b10101001 &
#8360
0$
0)
#8370
1$
#8380
0$
b110110 %
1,
#8390
1$
b1 +
1'
#8400
0$
0,
#8410
1$
#8420
0$
b10001000 %
1,
#8430
1$
b10 +
#8440
0$
0,
#8450
1$
#8460
0$
b10010010 %
1,
#8470
1$
b11 +
#8480
0$
0,
#8490
1$
#8500
0$
1)
#8510
1$
b10 +
b110110 &
#8520
0$
0)
#8530
1$
#8540
0$
1)
#8550
1$
b1 +
b10001000 &
#8560
0$
0)
#8570
1$
#8580
0$
1)
#8590
1$
b0 +
0'
b10010010 &
#8600
0$
0)
#8610
1$
#8620
0$
b11110 %
1,
#8630
1$
b1 +
1'
#8640
0$
0,
#8650
1$
#8660
0$
b1101 %
1,
#8670
1$
b10 +
#8680
0$
0,
#8690
1$
#8700
0$
b11101100 %
1,
#8710
1$
b11 +
#8720
0$
0,
#8730
1$
#8740
0$
b11000 %
1,
#8750
1$
b100 +
#8760
0$
0,
#8770
1$
#8780
0$
b11010001 %
1,
#8790
1$
b101 +
#8800
0$
0,
#8810
1$
#8820
0$
b10000110 %
1,
#8830
1$
b110 +
#8840
0$
0,
#8850
1$
#8860
0$
b1000001 %
1,
#8870
1$
b111 +
#8880
0$
0,
#8890
1$
#8900
0$
b111011 %
1,
#8910
1$
b1000 +
#8920
0$
0,
#8930
1$
#8940
0$
b11011000 %
1,
#8950
1$
b1001 +
#8960
0$
0,
#8970
1$
#8980
0$
b1010011 %
1,
#8990
1$
b1010 +
#9000
0$
0,
#9010
1$
#9020
0$
b1010110 %
1,
#9030
1$
b1011 +
#9040
0$
0,
#9050
1$
#9060
0$
b1011011 %
1,
#9070
1$
b1100 +
#9080
0$
0,
#9090
1$
#9100
0$
b11100010 %
1,
#9110
1$
b1101 +
#9120
0$
0,
#9130
1$
#9140
0$
b100 %
1,
#9150
1$
b1110 +
#9160
0$
0,
#9170
1$
#9180
0$
b1110011 %
1,
#9190
1$
b1111 +
#9200
0$
0,
#9210
1$
#9220
0$
b11011000 %
1,
#9230
1$
b10000 +
#9240
0$
0,
#9250
1$
#9260
0$
b10010 %
1,
#9270
1$
b10001 +
#9280
0$
0,
#9290
1$
#9300
0$
b10111000 %
1,
#9310
1$
b10010 +
#9320
0$
0,
#9330
1$
#9340
0$
b111001 %
1,
#9350
1$
b10011 +
#9360
0$
0,
#9370
1$
#9380
0$
b11100101 %
1,
#9390
1$
b10100 +
#9400
0$
0,
#9410
1$
#9420
0$
b10100001 %
1,
#9430
1$
b10101 +
#9440
0$
0,
#9450
1$
#9460
0$
b101011 %
1,
#9470
1$
b10110 +
#9480
0$
0,
#9490
1$
#9500
0$
b10000001 %
1,
#9510
1$
b10111 +
#9520
0$
0,
#9530
1$
#9540
0$
b11001000 %
1,
#9550
1$
b11000 +
#9560
0$
0,
#9570
1$
#9580
0$
b100111 %
1,
#9590
1$
b11001 +
#9600
0$
0,
#9610
1$
#9620
0$
b10100001 %
1,
#9630
1$
b11010 +
#9640
0$
0,
#9650
1$
#9660
0$
b11111 %
1,
#9670
1$
b11011 +
#9680
0$
0,
#9690
1$
#9700
0$
b100 %
1,
#9710
1$
b11100 +
#9720
0$
0,
#9730
1$
#9740
0$
b1011000 %
1,
#9750
1$
b11101 +
#9760
0$
0,
#9770
1$
#9780
0$
b10010110 %
1,
#9790
1$
b11110 +
#9800
0$
0,
#9810
1$
#9820
0$
b10100 %
1,
#9830
1$
b11111 +
#9840
0$
0,
#9850
1$
#9860
0$
b10010 %
1,
#9870
1$
b100000 +
0(
#9880
0$
0,
#9890
1$
#9900
0$
1)
#9910
1$
b11111 +
1(
b11110 &
#9920
0$
0)
#9930
1$
#9940
0$
1)
#9950
1$
b11110 +
b1101 &
#9960
0$
0)
#9970
1$
#9980
0$
1)
#9990
1$
b11101 +
b11101100 &
#10000
0$
0)
#10010
1$
#10020
0$
1)
#10030
1$
b11100 +
b11000 &
#10040
0$
0)
#10050
1$
#10060
0$
b10101101 %
1,
#10070
1$
b11101 +
#10080
0$
0,
#10090
1$
#10100
0$
b10100111 %
1,
#10110
1$
b11110 +
#10120
0$
0,
#10130
1$
#10140
0$
1)
#10150
1$
b11101 +
b11010001 &
#10160
0$
0)
#10170
1$
#10180
0$
1)
#10190
1$
b11100 +
b10000110 &
#10200
0$
0)
#10210
1$
#10220
0$
b1010001 %
1,
#10230
1$
b11101 +
#10240
0$
0,
#10250
1$
#10260
0$
1)
#10270
1$
b11100 +
b1000001 &
#10280
0$
0)
#10290
1$
#10300
0$
1)
#10310
1$
b11011 +
b111011 &
#10320
0$
0)
#10330
1$
#10340
0$
1)
#10350
1$
b11010 +
b11011000 &
#10360
0$
0)
#10370
1$
#10380
0$
b1111100 %
1,
1)
#10390
1$
b1010011 &
#10400
0$
0)
0,
#10410
1$
#10420
0$
b11110000 %
1,
1)
#10430
1$
b1010110 &
#10440
0$
0)
0,
#10450
1$
#10460
0$
1)
#10470
1$
b11001 +
b1011011 &
#10480
0$
0)
#10490
1$
#10500
0$
b101000 %
1,
1)
#10510
1$
b11100010 &
#10520
0$
0)
0,
#10530
1$
#10540
0$
b11000101 %
1,
1)
#10550
1$
b100 &
#10560
0$
0)
0,
#10570
1$
#10580
0$
b1110100 %
1,
1)
#10590
1$
b1110011 &
#10600
0$
0)
0,
#10610
1$
#10620
0$
1)
#10630
1$
b11000 +
b11011000 &
#10640
0$
0)
#10650
1$
#10660
0$
1)
#10670
1$
b10111 +
b10010 &
#10680
0$
0)
#10690
1$
#10700
0$
b101010 %
1,
#10710
1$
b11000 +
#10720
0$
0,
#10730
1$
#10740
0$
b10101 %
1,
#10750
1$
b11001 +
#10760
0$
0,
#10770
1$
#10780
0$
1)
#10790
1$
b11000 +
b10111000 &
#10800
0$
0)
#10810
1$
#10820
0$
b10000110 %
1,
#10830
1$
b11001 +
#10840
0$
0,
#10850
1$
#10860
0$
b11000001 %
1,
#10870
1$
b11010 +
#10880
0$
0,
#10890
1$
#10900
0$
1)
#10910
1$
b11001 +
b111001 &
#10920
0$
0)
#10930
1$
#10940
0$
1)
#10950
1$
b11000 +
b11100101 &
#10960
0$
0)
#10970
1$
#10980
0$
b101100 %
1,
1)
#10990
1$
b10100001 &
#11000
0$
0)
0,
#11010
1$
#11020
0$
b1110001 %
1,
#11030
1$
b11001 +
#11040
0$
0,
#11050
1$
#11060
0$
1)
#11070
1$
b11000 +
b101011 &
#11080
0$
0)
#11090
1$
#11100
0$
b11110111 %
1,
#11110
1$
b11001 +
#11120
0$
0,
#11130
1$
#11140
0$
1)
#11150
1$
b11000 +
b10000001 &
#11160
0$
0)
#11170
1$
#11180
0$
1)
#11190
1$
b10111 +
b11001000 &
#11200
0$
0)
#11210
1$
#11220
0$
1)
#11230
1$
b10110 +
b100111 &
#11240
0$
0)
#11250
1$
#11260
0$
1)
#11270
1$
b10101 +
b10100001 &
#11280
0$
0)
#11290
1$
#11300
0$
1)
#11310
1$
b10100 +
b11111 &
#11320
0$
0)
#11330
1$
#11340
0$
1)
#11350
1$
b10011 +
b100 &
#11360
0$
0)
#11370
1$
#11380
0$
1)
#11390
1$
b10010 +
b1011000 &
#11400
0$
0)
#11410
1$
#11420
0$
1)
#11430
1$
b10001 +
b10010110 &
#11440
0$
0)
#11450
1$
#11460
0$
1)
#11470
1$
b10000 +
b10100 &
#11480
0$
0)
#11490
1$
#11500
0$
1)
#11510
1$
b1111 +
b10010 &
#11520
0$
0)
#11530
1$
#11540
0$
b11101 %
1,
#11550
1$
b10000 +
#11560
0$
0,
#11570
1$
#11580
0$
b1000100 %
1,
1)
#11590
1$
b10101101 &
#11600
0$
0)
0,
#11610
1$
#11620
0$
b11111000 %
1,
1)
#11630
1$
b10100111 &
#11640
0$
0)
0,
#11650
1$
#11660
0$
b1010010 %
1,
1)
#11670
1$
b1010001 &
#11680
0$
0)
0,
#11690
1$
#11700
0$
b1000110 %
1,
#11710
1$
b10001 +
#11720
0$
0,
#11730
1$
#11740
0$
b10111 %
1,
1)
#11750
1$
b1111100 &
#11760
0$
0)
0,
#11770
1$
#11780
0$
b10000100 %
1,
#11790
1$
b10010 +
#11800
0$
0,
#11810
1$
#11820
0$
1)
#11830
1$
b10001 +
b11110000 &
#11840
0$
0)
#11850
1$
#11860
0$
b10001011 %
1,
#11870
1$
b10010 +
#11880
0$
0,
#11890
1$
#11900
0$
b10100010 %
1,
#11910
1$
b10011 +
#11920
0$
0,
#11930
1$
#11940
0$
1)
#11950
1$
b10010 +
b101000 &
#11960
0$
0)
#11970
1$
#11980
0$
1)
#11990
1$
b10001 +
b11000101 &
#12000
0$
0)
#12010
1$
#12020
0$
b10000110 %
1,
#12030
1$
b10010 +
#12040
0$
0,
#12050
1$
#12060
0$
1)
#12070
1$
b10001 +
b1110100 &
#12080
0$
0)
#12090
1$
#12100
0$
b101100 %
1,
#12110
1$
b10010 +
#12120
0$
0,
#12130
1$
#12140
0$
b111 %
1,
#12150
1$
b10011 +
#12160
0$
0,
#12170
1$
#12180
0$
1)
#12190
1$
b10010 +
b101010 &
#12200
0$
0)
#12210
1$
#12220
0$
1)
#12230
1$
b10001 +
b10101 &
#12240
0$
0)
#12250
1$
#12260
0$
b1001011 %
1,
#12270
1$
b10010 +
#12280
0$
0,
#12290
1$
#12300
0$
b11101100 %
1,
#12310
1$
b10011 +
#12320
0$
0,
#12330
1$
#12340
0$
b10100100 %
1,
1)
#12350
1$
b10000110 &
#12360
0$
0)
0,
#12370
1$
#12380
0$
1)
