fork_join_1.vcd
$date
	Wed Aug  6 02:51:41 2025
$end
$version
	QuestaSim Version 2024.3_1
$end
$timescale
	1ns
$end

$scope module test_fork_join $end
$var reg 1 ! clk $end
$var reg 2 " mi_variable_all [1:0] $end
$var reg 2 # mi_variable_any [1:0] $end
$var reg 2 $ mi_variable_none [1:0] $end

$scope begin cb $end
$var event 1 % cb_event $end
$upscope $end
$upscope $end
$enddefinitions $end
#0
$dumpvars
0!
bx "
bx #
bx $
1%
$end
#5
1!
1%
b0 "
b0 $
b0 #
#10
0!
#15
1!
1%
b1 "
b1 $
b1 #
#20
0!
#25
1!
1%
b10 "
b11 $
b10 #
#30
0!
#35
1!
1%
b11 #
#40
0!
#45
1!
1%
#50
0!
#55
1!
1%
b11 "
#60
0!
#65
1!
1%
#70
0!
#75
1!
1%
