prueba_def.vcd
$date
	Fri Sep 26 21:57:16 2025
$end
$version
	QuestaSim Version 2025.1_2
$end
$timescale
	1ps
$end

$scope module fifo_interfaz $end
$var integer 32 '! clk $end

$var reg 1 -! wr_en $end

$scope module px $end

$var reg 1 3! wr_en $end

$upscope $end
$scope module tx $end
$var reg 1 :! wr_en $end
$var reg 1 ;! rd_en $end
$var reg 64 <! data_in [63:0] $end
$var reg 1 =! rst_s $end
$upscope $end


$enddefinitions $end
#0
0<
x=
x>
x~
x}
x|
x{
xz
xy
xx
xw
xv
xu
xt
xs
xr
xq
xp
xo
xn
xm
xl
xk
xj
xi
xh
xg
xf
xe
xd
xc
xb
xa
x`
x_
x^
x]
x\
x[
xZ
xY
xX
xW
xV
xU
xT
xS
xR
xQ
xP
xO
xN
xM
xL
xK
xJ
xI
xH
xG
xF
xE
xD
xC
xB
xA
x@
x?
x!!
x"!
bx #!
b0 $!
b0 %!
b1 &!
b0 !
bx "
bx #
b0 $
b0 '!
bx %
bx (!
bx &
bx )!
b1 '
b1 *!
b0 (
b0 +!
bx )
bx ,!
bx *
bx -!
b0 +
b0 .!
bx ,
bx /!
bx -
bx 0!
bx .
bx 1!
bx /
bx 2!
bx 0
bx 3!
bx 1
bx 4!
bx 2
bx 5!
bx 3
bx 6!
bx 4
bx 7!
bx 5
bx 8!
bx 6
bx 9!
bx 7
bx :!
bx 8
bx ;!
bx 9
bx <!
b1 :
b1 =!
b1 ;
b1 >!
b0 ?!
b0 !
b1 ;
b1 >!
b1 :
b1 =!
b0 $!
b1 &!
b0 %!
0<
b0 (
b0 +!
b1 '
b1 *!
b0 +
b0 .!
#50000
b1 !
b1 $
b1 '!
1<
b1 4
b1 7!
b0 3
b0 6!
b0 2
b0 5!
#52000
b1 &
b1 )!
1>
#100000
b0 !
b0 $
b0 '!
0<
b0 ;
b0 >!
#102000
b0 %
b0 (!
0=
b0 #!
b0 -
b0 0!
#150000
b1 !
b1 $
b1 '!
1<
b1 .
b1 1!
b0 6
b0 9!
b0 /
b0 2!
#200000
b0 !
b0 $
b0 '!
0<
b1 ;
b1 >!
#202000
b1 %
b1 (!
1=
#250000
b1 !
b1 $
b1 '!
1<
b1 /
b1 2!
b1 ?!
b1111111001111111101100111010100011111001100101101111110000010000 9
b1111111001111111101100111010100011111001100101101111110000010000 <!
b1 7
b1 :!
b0 8
b0 ;!
#252000
b1111111001111111101100111010100011111001100101101111110000010000 ,
b1111111001111111101100111010100011111001100101101111110000010000 /!
b1 *
b1 -!
b0 )
b0 ,!
0~
0}
0|
0{
1z
0y
0x
0w
0v
0u
1t
1s
1r
1q
1p
1o
0n
1m
1l
0k
1j
0i
0h
1g
1f
0e
0d
1c
1b
1a
1`
1_
0^
0]
0\
1[
0Z
1Y
0X
1W
1V
1U
0T
0S
1R
1Q
0P
1O
1N
1M
1L
1K
1J
1I
1H
0G
0F
1E
1D
1C
1B
1A
1@
1?
1"!
0!!
#300000
b0 !
b0 $
b0 '!
0<
b0 7
b0 :!
b1010100011110101101100001111110010110011011110011010001010001000 9
b1010100011110101101100001111110010110011011110011010001010001000 <!
#350000
b1 !
b1 $
b1 '!
1<
b1 $!
b1 %!
b1 (
b1 +!
b1 +
b1 .!
b0 1
b0 4!
b1 0
b1 3!
b1111111001111111101100111010100011111001100101101111110000010000 5
b1111111001111111101100111010100011111001100101101111110000010000 8!
#352000
b0 *
b0 -!
b1010100011110101101100001111110010110011011110011010001010001000 ,
b1010100011110101101100001111110010110011011110011010001010001000 /!
0"!
1{
0z
1w
1u
0t
0s
0r
0p
1n
0m
0l
1k
1i
1h
0g
1e
0c
0`
1\
1Z
1X
0V
0U
0M
0K
1G
0E
0D
0B
0@
#400000
b0 !
b0 $
b0 '!
0<
b1 7
b1 :!
b1 8
b1 ;!
b1011010101100110000110100110100111111010111001010001011100000001 9
b1011010101100110000110100110100111111010111001010001011100000001 <!
#450000
b1 !
b1 $
b1 '!
1<
b1 2
b1 5!
b1 3
b1 6!
b1010100011110101101100001111110010110011011110011010001010001000 5
b1010100011110101101100001111110010110011011110011010001010001000 8!
b0 0
b0 3!
#452000
b1 *
b1 -!
b1 )
b1 ,!
b1011010101100110000110100110100111111010111001010001011100000001 ,
b1011010101100110000110100110100111111010111001010001011100000001 /!
1"!
1!!
1~
0{
0w
1v
1t
1r
0q
0o
1l
0k
0j
1g
0f
1c
1`
1^
0\
0Z
0W
1U
1S
0Q
0O
0N
1M
0J
0G
1F
1D
0C
1B
#500000
b0 !
b0 $
b0 '!
0<
b0 7
b0 :!
b0 ?!
b1011010001110111010101111100001011100101010010011011011100110010 9
b1011010001110111010101111100001011100101010010011011011100110010 <!
#550000
b1 !
b1 $
b1 '!
1<
b1111111001111111101100111010100011111001100101101111110000010000 #!
b1111111001111111101100111010100011111001100101101111110000010000 -
b1111111001111111101100111010100011111001100101101111110000010000 0!
b1011010101100110000110100110100111111010111001010001011100000001 5
b1011010101100110000110100110100111111010111001010001011100000001 8!
b1 1
b1 4!
b1 0
b1 3!
#552000
b0 *
b0 -!
b1011010001110111010101111100001011100101010010011011011100110010 ,
b1011010001110111010101111100001011100101010010011011011100110010 /!
0"!
0~
1}
1z
1y
1q
1o
0l
1k
0i
0g
1f
0e
1d
0c
0b
0^
1]
0[
0Y
1W
1V
1T
0S
1P
1N
1J
0F
#600000
b0 !
b0 $
b0 '!
0<
b0 8
b0 ;!
b111000010010101010000010100101011011110111111101001110010010101 9
b111000010010101010000010100101011011110111111101001110010010101 <!
#650000
b1 !
b1 $
b1 '!
1<
b0 $!
b0 %!
b0 (
b0 +!
b0 +
b0 .!
b1011010101100110000110100110100111111010111001010001011100000001 #!
b1011010101100110000110100110100111111010111001010001011100000001 -
b1011010101100110000110100110100111111010111001010001011100000001 0!
b1111111001111111101100111010100011111001100101101111110000010000 6
b1111111001111111101100111010100011111001100101101111110000010000 9!
b1011010001110111010101111100001011100101010010011011011100110010 5
b1011010001110111010101111100001011100101010010011011011100110010 8!
b0 0
b0 3!
#652000
b0 )
b0 ,!
b111000010010101010000010100101011011110111111101001110010010101 ,
b111000010010101010000010100101011011110111111101001110010010101 /!
0!!
1~
0}
1|
0y
1w
0v
0u
1s
0q
0n
1m
1l
1j
1i
1g
0f
1e
1c
1b
0a
1[
0W
0U
0T
0R
0M
0I
0H
1G
0D
1@
0?
#700000
b0 !
b0 $
b0 '!
0<
b1 7
b1 :!
b1 8
b1 ;!
b1011001101111110000011100110100010010111111111010010010111001101 9
b1011001101111110000011100110100010010111111111010010010111001101 <!
#750000
b1 !
b1 $
b1 '!
1<
b1011010101100110000110100110100111111010111001010001011100000001 6
b1011010101100110000110100110100111111010111001010001011100000001 9!
b0 2
b0 5!
b0 3
b0 6!
b111000010010101010000010100101011011110111111101001110010010101 5
b111000010010101010000010100101011011110111111101001110010010101 8!
b0 1
b0 4!
#752000
b1 *
b1 -!
b1 )
b1 ,!
b1011001101111110000011100110100010010111111111010010010111001101 ,
b1011001101111110000011100110100010010111111111010010010111001101 /!
1"!
1!!
1{
0z
1x
1v
0s
0r
1q
0o
1n
0m
1f
0c
0`
0]
1Y
0V
1U
1T
1S
0P
0N
1M
1K
1I
1H
0G
1F
1E
0@
1?
#800000
b0 !
b0 $
b0 '!
0<
b0 8
b0 ;!
b1 ?!
b101000000111010010101100100011010011100110101101000101100101100 9
b101000000111010010101100100011010011100110101101000101100101100 <!
#850000
b1 !
b1 $
b1 '!
1<
b1011001101111110000011100110100010010111111111010010010111001101 #!
b1011001101111110000011100110100010010111111111010010010111001101 -
b1011001101111110000011100110100010010111111111010010010111001101 0!
b1011001101111110000011100110100010010111111111010010010111001101 5
b1011001101111110000011100110100010010111111111010010010111001101 8!
b1 1
b1 4!
b1 0
b1 3!
#852000
b0 )
b0 ,!
b101000000111010010101100100011010011100110101101000101100101100 ,
b101000000111010010101100100011010011100110101101000101100101100 /!
0!!
0~
1y
0x
0w
1u
0t
1s
0q
1o
0n
1m
0k
0i
0f
0e
1c
1]
1\
0[
0Y
0S
1R
1P
0L
0H
0F
0E
0A
1@
0?
#900000
b0 !
b0 $
b0 '!
0<
b0 7
b0 :!
b1 8
b1 ;!
b0 ?!
b1001010011010001010100111110100100111100010111101101010111110001 9
b1001010011010001010100111110100100111100010111101101010111110001 <!
#950000
b1 !
b1 $
b1 '!
1<
b1 $!
b1 %!
b1 (
b1 +!
b1 +
b1 .!
b1011001101111110000011100110100010010111111111010010010111001101 6
b1011001101111110000011100110100010010111111111010010010111001101 9!
b101000000111010010101100100011010011100110101101000101100101100 5
b101000000111010010101100100011010011100110101101000101100101100 8!
b0 1
b0 4!
#952000
b0 *
b0 -!
b1 )
b1 ,!
b1001010011010001010100111110100100111100010111101101010111110001 ,
b1001010011010001010100111110100100111100010111101101010111110001 /!
0"!
1!!
1~
0|
0{
1z
1x
1w
0u
1t
0s
1r
1p
1k
0g
1a
0_
1^
0]
0\
1[
1Y
1W
1V
0T
1N
0M
0K
0I
1H
1G
1D
0@
1?
#1000000
b0 !
b0 $
b0 '!
0<
b0 8
b0 ;!
