radicador_detalles4_2.vcd
$date
	Fri Oct 08 10:55:21 2021
$end
$version
	QuestaSim Version 2020.2
$end
$timescale
	1ps
$end
$scope module prueba_radicador $end
$scope module duv $end
$scope module radicador_duv $end
$var wire 1 ! CLK $end
$var wire 1 " START $end
$upscope $end
$upscope $end
$scope module interfaz $end
$scope module sd $end
$var reg 1 # interfaz_sd_empieza $end
$upscope $end
$scope module md $end
$var reg 1 $ interfaz_md_empieza $end
$upscope $end
$upscope $end
$upscope $end
$enddefinitions $end
#0
0!
x"
bx $
b0 #
0!
b0 #
#50000
1!
#52000
0"
#100000
0!
#150000
1!
b0 $
#200000
0!
#250000
1!
b1 #
#252000
1"
#300000
0!
#350000
1!
b1 $
b0 #
#352000
0"
#400000
0!
#450000
1!
b0 $
