radicador_detalles.vcd
$date
	Tue Oct 05 13:59:26 2021
$end
$version
	QuestaSim Version 2020.2
$end
$timescale
	1ps
$end
$scope module prueba_radicador $end
$scope module duv $end
$scope module radicador_duv $end
$var wire 1 ! CLK $end
$var wire 1 " START $end
$var wire 1 # RESET $end
$upscope $end
$upscope $end
$scope module interfaz $end
$scope module sd $end
$var reg 1 $ empieza_sd $end
$upscope $end
$scope module md $end
$var reg 1 % empieza_md $end
$upscope $end
$upscope $end
$upscope $end
$enddefinitions $end
#0
0!
x"
1#
b0 $
bx %
0!
1#
b0 $
#1000
0#
#50000
1!
#100000
0!
1#
#148000
0"
#150000
1!
#200000
0!
#250000
1!
b0 %
b1 $
#300000
0!
#348000
1"
#350000
1!
b0 $
#400000
0!
#448000
0"
#450000
1!
b1 %
#500000
0!
#550000
1!
b0 %
